testbench/sim/pipelined_mips.vcd
$date
	Thu Apr  6 15:09:24 2017
$end
$version
	Icarus Verilog
$end
$timescale
	1ps
$end
$scope module tb_pipelined_mips $end
$var wire 32 ! pc_WB [31:0] $end
$var wire 32 " pc_MEM [31:0] $end
$var wire 32 # pc_IF [31:0] $end
$var wire 32 $ pc_ID [31:0] $end
$var wire 32 % pc_EXE [31:0] $end
$var wire 32 & inst_addr [31:0] $end
$var wire 32 ' inst [31:0] $end
$var wire 1 ( data_wr $end
$var wire 32 ) data_out [31:0] $end
$var wire 32 * data_in [31:0] $end
$var wire 32 + data_addr [31:0] $end
$var reg 1 , clk $end
$var reg 32 - res [31:0] $end
$var reg 1 . rst_n $end
$var integer 32 / add [31:0] $end
$var integer 32 0 addi [31:0] $end
$var integer 32 1 beq [31:0] $end
$var integer 32 2 bne [31:0] $end
$var integer 32 3 i [31:0] $end
$var integer 32 4 jal [31:0] $end
$var integer 32 5 jr [31:0] $end
$var integer 32 6 jump [31:0] $end
$var integer 32 7 ldst [31:0] $end
$var integer 32 8 nop_count [31:0] $end
$var integer 32 9 slt [31:0] $end
$var integer 32 : slti [31:0] $end
$var integer 32 ; sub [31:0] $end
$var integer 32 < watch_count [31:0] $end
$scope module D1 $end
$var wire 1 , clk $end
$var wire 32 = data_in [31:0] $end
$var wire 1 ( data_wr $end
$var wire 32 > data_out [31:0] $end
$var wire 32 ? data_addr [31:0] $end
$var reg 32 @ data_in_temp [31:0] $end
$upscope $end
$scope module I1 $end
$var wire 1 , clk $end
$var wire 32 A inst [31:0] $end
$var wire 32 B inst_addr [31:0] $end
$var reg 32 C inst_temp [31:0] $end
$upscope $end
$scope module UUT $end
$var wire 1 , clk $end
$var wire 32 D data_addr [31:0] $end
$var wire 32 E data_in [31:0] $end
$var wire 32 F data_out [31:0] $end
$var wire 1 ( data_wr $end
$var wire 32 G if_id_inst [31:0] $end
$var wire 32 H inst [31:0] $end
$var wire 32 I pc_EXE [31:0] $end
$var wire 32 J pc_ID [31:0] $end
$var wire 32 K pc_IF [31:0] $end
$var wire 32 L pc_MEM [31:0] $end
$var wire 32 M pc_WB [31:0] $end
$var wire 1 . rst_n $end
$var wire 32 N rd_dataB [31:0] $end
$var wire 32 O rd_dataA [31:0] $end
$var wire 1 P aluZ $end
$var wire 32 Q aluRes [31:0] $end
$var wire 1 R aluNeg $end
$var reg 1 S branch_taken $end
$var reg 1 T exe_mem_aluNeg $end
$var reg 32 U exe_mem_aluRes [31:0] $end
$var reg 1 V exe_mem_aluZ $end
$var reg 1 W exe_mem_data_wr $end
$var reg 32 X exe_mem_inst [31:0] $end
$var reg 32 Y exe_mem_inst_addr [31:0] $end
$var reg 32 Z exe_mem_storeOp [31:0] $end
$var reg 5 [ exe_mem_wr_addr [4:0] $end
$var reg 1 \ exe_mem_wr_en $end
$var reg 1 ] flush_jump $end
$var reg 32 ^ id_exe_aluOpA [31:0] $end
$var reg 32 _ id_exe_aluOpB [31:0] $end
$var reg 2 ` id_exe_aluSel [1:0] $end
$var reg 1 a id_exe_data_wr $end
$var reg 32 b id_exe_inst [31:0] $end
$var reg 32 c id_exe_inst_addr [31:0] $end
$var reg 32 d id_exe_storeOp [31:0] $end
$var reg 5 e id_exe_wr_addr [4:0] $end
$var reg 1 f id_exe_wr_en $end
$var reg 32 g if_id_inst_addr [31:0] $end
$var reg 32 h inst_addr [31:0] $end
$var reg 1 i mem_wb_aluNeg $end
$var reg 32 j mem_wb_aluRes [31:0] $end
$var reg 32 k mem_wb_inst [31:0] $end
$var reg 32 l mem_wb_inst_addr [31:0] $end
$var reg 5 m mem_wb_wr_addr [4:0] $end
$var reg 32 n mem_wb_wr_data [31:0] $end
$var reg 1 o mem_wb_wr_en $end
$scope module A1 $end
$var wire 32 p opA [31:0] $end
$var wire 32 q opB [31:0] $end
$var wire 32 r res [31:0] $end
$var wire 2 s sel [1:0] $end
$var wire 1 P z $end
$var wire 32 t res_sub [31:0] $end
$var wire 32 u res_add [31:0] $end
$var wire 1 R neg $end
$var reg 32 v res_temp [31:0] $end
$upscope $end
$scope module R1 $end
$var wire 1 , clk $end
$var wire 5 w rd_addrA [4:0] $end
$var wire 5 x rd_addrB [4:0] $end
$var wire 32 y rd_dataA [31:0] $end
$var wire 32 z rd_dataB [31:0] $end
$var wire 32 { reg0 [31:0] $end
$var wire 32 | reg1 [31:0] $end
$var wire 32 } reg10 [31:0] $end
$var wire 32 ~ reg11 [31:0] $end
$var wire 32 !" reg12 [31:0] $end
$var wire 32 "" reg13 [31:0] $end
$var wire 32 #" reg14 [31:0] $end
$var wire 32 $" reg15 [31:0] $end
$var wire 32 %" reg16 [31:0] $end
$var wire 32 &" reg17 [31:0] $end
$var wire 32 '" reg18 [31:0] $end
$var wire 32 (" reg19 [31:0] $end
$var wire 32 )" reg2 [31:0] $end
$var wire 32 *" reg20 [31:0] $end
$var wire 32 +" reg21 [31:0] $end
$var wire 32 ," reg22 [31:0] $end
$var wire 32 -" reg23 [31:0] $end
$var wire 32 ." reg24 [31:0] $end
$var wire 32 /" reg25 [31:0] $end
$var wire 32 0" reg26 [31:0] $end
$var wire 32 1" reg27 [31:0] $end
$var wire 32 2" reg28 [31:0] $end
$var wire 32 3" reg29 [31:0] $end
$var wire 32 4" reg3 [31:0] $end
$var wire 32 5" reg30 [31:0] $end
$var wire 32 6" reg31 [31:0] $end
$var wire 32 7" reg4 [31:0] $end
$var wire 32 8" reg5 [31:0] $end
$var wire 32 9" reg6 [31:0] $end
$var wire 32 :" reg7 [31:0] $end
$var wire 32 ;" reg8 [31:0] $end
$var wire 32 <" reg9 [31:0] $end
$var wire 1 . rst_n $end
$var wire 5 =" wr_addr [4:0] $end
$var wire 32 >" wr_data [31:0] $end
$var wire 1 o wr_en $end
$upscope $end
$upscope $end
$upscope $end
$enddefinitions $end
#0
$dumpvars
b0 >"
b0 ="
b0 <"
b0 ;"
b0 :"
b0 9"
b0 8"
b0 7"
b0 6"
b0 5"
b0 4"
b0 3"
b0 2"
b0 1"
b0 0"
b0 /"
b0 ."
b0 -"
b0 ,"
b0 +"
b0 *"
b0 )"
b0 ("
b0 '"
b0 &"
b0 %"
b0 $"
b0 #"
b0 ""
b0 !"
b0 ~
b0 }
b0 |
b0 {
bx z
bx y
bx x
bx w
b0 v
b0 u
b0 t
b0 s
bx r
b0 q
b0 p
0o
b0 n
b0 m
b0 l
b0 k
b0 j
0i
b0 h
b0 g
0f
b0 e
b0 d
b0 c
b0 b
0a
b0 `
b0 _
b0 ^
0]
0\
b0 [
b0 Z
b0 Y
b0 X
0W
0V
b0 U
0T
0S
xR
bx Q
xP
bx O
bx N
b0 M
b0 L
b0 K
b0 J
b0 I
bx H
bx G
b0 F
bx E
b0 D
bx C
b0 B
bx A
bx @
b0 ?
b0 >
bx =
b0 <
bx ;
bx :
bx 9
b0 8
bx 7
bx 6
bx 5
bx 4
b0 3
bx 2
bx 1
bx 0
bx /
0.
bx -
0,
b0 +
bx *
b0 )
0(
bx '
b0 &
b0 %
b0 $
b0 #
b0 "
b0 !
$end
#5000
b0 Q
b0 r
0R
1P
#10000
b10001100000000010000000000000000 C
b100011010101111001101 @
1,
#14000
b0 O
b0 y
b0 w
b0 N
b0 z
b1 x
b10001100000000010000000000000000 G
b10001100000000010000000000000000 '
b10001100000000010000000000000000 A
b10001100000000010000000000000000 H
b100011010101111001101 *
b100011010101111001101 =
b100011010101111001101 E
#20000
0,
#30000
1,
#40000
0,
#50000
1,
#60000
0,
#70000
1,
#80000
0,
#90000
1,
#100000
0,
#110000
1,
#120000
0,
#130000
1,
#140000
0,
#150000
1,
#160000
0,
#170000
1,
#180000
0,
#190000
1,
#200000
0,
#210000
1,
#216000
1.
#220000
0,
#230000
b100 #
b100 K
b100 &
b100 B
b100 h
b10001100000000010000000000000000 b
b1 e
1f
1V
1,
#236000
b1 <
#240000
0,
#250000
1\
b10001100000000010000000000000000 X
b1 [
b100 $
b100 J
b100 g
b1000 #
b1000 K
b1000 &
b1000 B
b1000 h
b10001100000000100000000000000100 C
1,
#254000
b10 x
b10001100000000100000000000000100 G
b10001100000000100000000000000100 '
b10001100000000100000000000000100 A
b10001100000000100000000000000100 H
#256000
b10 <
#260000
0,
#270000
b100 v
b100011010101111001101 n
b100011010101111001101 >"
b1100 #
b1100 K
b1100 &
b1100 B
b1100 h
b1000 $
b1000 J
b1000 g
b100 u
b11111111111111111111111111111100 t
b100 _
b100 q
b10001100000000100000000000000100 b
b100 %
b100 I
b100 c
b10 e
b10001100000000010000000000000000 k
b1 m
b1 ="
1o
b10001100000000110000000000001000 C
1,
#274000
b11 x
b10001100000000110000000000001000 G
b10001100000000110000000000001000 '
b10001100000000110000000000001000 A
b10001100000000110000000000001000 H
#275000
0P
b100 Q
b100 r
#276000
b11 <
#280000
0,
#290000
b1000 v
0V
b100 +
b100 ?
b100 D
b100 U
b100 "
b100 L
b100 Y
b10001100000000100000000000000100 X
b10 [
b11 e
b1000 %
b1000 I
b1000 c
b10001100000000110000000000001000 b
b1000 u
b11111111111111111111111111111000 t
b1000 _
b1000 q
b1100 $
b1100 J
b1100 g
b10000 #
b10000 K
b10000 &
b10000 B
b10000 h
b100011010101111001101 |
b0 C
1,
#294000
b0 x
b0 G
b0 '
b0 A
b0 H
#295000
b1000 Q
b1000 r
#296000
b100 <
b1 8
#300000
0,
#310000
b0 v
b10100 #
b10100 K
b10100 &
b10100 B
b10100 h
b10000 $
b10000 J
b10000 g
b0 u
b0 t
b0 _
b0 q
b0 b
b1100 %
b1100 I
b1100 c
b0 e
0f
b11 [
b10001100000000110000000000001000 X
b1000 "
b1000 L
b1000 Y
b1000 +
b1000 ?
b1000 D
b1000 U
b10001100000000100000000000000100 k
b100 !
b100 M
b100 l
b10 m
b10 ="
b100 j
b11111111111111110000000100000001 @
b10101100000000010000000000010000 C
1,
#314000
b11111111111111110000000100000001 n
b11111111111111110000000100000001 >"
b100011010101111001101 N
b100011010101111001101 z
b1 x
b11111111111111110000000100000001 *
b11111111111111110000000100000001 =
b11111111111111110000000100000001 E
b10101100000000010000000000010000 G
b10101100000000010000000000010000 '
b10101100000000010000000000010000 A
b10101100000000010000000000010000 H
#315000
1P
b0 Q
b0 r
#316000
b101 <
b0 8
#320000
0,
#330000
b10000 v
b1000 j
b11 m
b11 ="
b1000 !
b1000 M
b1000 l
b10001100000000110000000000001000 k
1V
b0 +
b0 ?
b0 D
b0 U
0\
b1100 "
b1100 L
b1100 Y
b0 X
b0 [
1a
b1 e
b10000 %
b10000 I
b10000 c
b10101100000000010000000000010000 b
b100011010101111001101 d
b10000 u
b11111111111111111111111111110000 t
b10000 _
b10000 q
b10100 $
b10100 J
b10100 g
b11000 #
b11000 K
b11000 &
b11000 B
b11000 h
b11111111111111110000000100000001 )"
b0 C
b100 @
1,
#334000
b100 n
b100 >"
b0 N
b0 z
b0 x
b0 G
b0 '
b0 A
b0 H
b100 *
b100 =
b100 E
#335000
0P
b10000 Q
b10000 r
#336000
b110 <
b1 8
#340000
0,
#350000
b0 v
b0 n
b0 >"
b100 4"
b11100 #
b11100 K
b11100 &
b11100 B
b11100 h
b11000 $
b11000 J
b11000 g
b0 u
b0 t
b0 _
b0 q
b0 d
b0 b
b10100 %
b10100 I
b10100 c
b0 e
0a
b100011010101111001101 )
b100011010101111001101 >
b100011010101111001101 F
b100011010101111001101 Z
b1 [
b10101100000000010000000000010000 X
b10000 "
b10000 L
b10000 Y
1(
1W
b10000 +
b10000 ?
b10000 D
b10000 U
0V
b0 k
b1100 !
b1100 M
b1100 l
b0 m
b0 ="
0o
b0 j
b100011010101111001101 @
b10101100011000100000000000001000 C
1,
#354000
b100 O
b100 y
b11 w
b11111111111111110000000100000001 N
b11111111111111110000000100000001 z
b10 x
b100011010101111001101 *
b100011010101111001101 =
b100011010101111001101 E
b10101100011000100000000000001000 G
b10101100011000100000000000001000 '
b10101100011000100000000000001000 A
b10101100011000100000000000001000 H
#355000
1P
b0 Q
b0 r
#356000
b111 <
b0 8
#360000
0,
#370000
b1100 v
b10000 j
b1 m
b1 ="
b10000 !
b10000 M
b10000 l
b10101100000000010000000000010000 k
1V
b0 +
b0 ?
b0 D
b0 U
0(
0W
b10100 "
b10100 L
b10100 Y
b0 X
b0 [
b0 )
b0 >
b0 F
b0 Z
1a
b10 e
b11000 %
b11000 I
b11000 c
b10101100011000100000000000001000 b
b11111111111111110000000100000001 d
b1000 _
b1000 q
b1100 u
b11111111111111111111111111111100 t
b100 ^
b100 p
b11100 $
b11100 J
b11100 g
b100000 #
b100000 K
b100000 &
b100000 B
b100000 h
b10001100000001000000000000010100 C
b0 @
1,
#374000
b0 O
b0 y
b0 w
b0 N
b0 z
b100 x
b10001100000001000000000000010100 G
b10001100000001000000000000010100 '
b10001100000001000000000000010100 A
b10001100000001000000000000010100 H
b0 *
b0 =
b0 E
#375000
0P
b1100 Q
b1100 r
#376000
b1000 <
#380000
0,
#390000
b10100 v
b100100 #
b100100 K
b100100 &
b100100 B
b100100 h
b100000 $
b100000 J
b100000 g
b0 ^
b0 p
b10100 u
b11111111111111111111111111101100 t
b10100 _
b10100 q
b0 d
b10001100000001000000000000010100 b
b11100 %
b11100 I
b11100 c
b100 e
0a
1f
b11111111111111110000000100000001 )
b11111111111111110000000100000001 >
b11111111111111110000000100000001 F
b11111111111111110000000100000001 Z
b10 [
b10101100011000100000000000001000 X
b11000 "
b11000 L
b11000 Y
1(
1W
b1100 +
b1100 ?
b1100 D
b1100 U
0V
b0 k
b10100 !
b10100 M
b10100 l
b0 m
b0 ="
b0 j
b100011010101111001101 @
b1000010010100000100000 C
1,
#394000
b100011010101111001101 O
b100011010101111001101 y
b1 w
b100011010101111001101 N
b100011010101111001101 z
b1 x
b100011010101111001101 *
b100011010101111001101 =
b100011010101111001101 E
b1000010010100000100000 G
b1000010010100000100000 '
b1000010010100000100000 A
b1000010010100000100000 H
#395000
b10100 Q
b10100 r
#396000
b1001 <
#400000
0,
#410000
b1000110101011110011010 v
b1100 j
b10 m
b10 ="
b11000 !
b11000 M
b11000 l
b10101100011000100000000000001000 k
b10100 +
b10100 ?
b10100 D
b10100 U
0(
0W
1\
b11100 "
b11100 L
b11100 Y
b10001100000001000000000000010100 X
b100 [
b0 )
b0 >
b0 F
b0 Z
b101 e
b100000 %
b100000 I
b100000 c
b1000010010100000100000 b
b100011010101111001101 d
b100011010101111001101 _
b100011010101111001101 q
b1000110101011110011010 u
b0 t
b100011010101111001101 ^
b100011010101111001101 p
b100100 $
b100100 J
b100100 g
b101000 #
b101000 K
b101000 &
b101000 B
b101000 h
b10000100011000000100000 C
b0 @
1,
#414000
b11111111111111110000000100000001 O
b11111111111111110000000100000001 y
b10 w
b11111111111111110000000100000001 N
b11111111111111110000000100000001 z
b10 x
b10000100011000000100000 G
b10000100011000000100000 '
b10000100011000000100000 A
b10000100011000000100000 H
b0 *
b0 =
b0 E
#415000
b1000110101011110011010 Q
b1000110101011110011010 r
#416000
b1010 <
#420000
0,
#430000
b11111111111111100000001000000010 v
b101100 #
b101100 K
b101100 &
b101100 B
b101100 h
b101000 $
b101000 J
b101000 g
b11111111111111110000000100000001 ^
b11111111111111110000000100000001 p
b11111111111111100000001000000010 u
b0 t
b11111111111111110000000100000001 _
b11111111111111110000000100000001 q
b11111111111111110000000100000001 d
b10000100011000000100000 b
b100100 %
b100100 I
b100100 c
b110 e
b100011010101111001101 )
b100011010101111001101 >
b100011010101111001101 F
b100011010101111001101 Z
b101 [
b1000010010100000100000 X
b100000 "
b100000 L
b100000 Y
b1000110101011110011010 +
b1000110101011110011010 ?
b1000110101011110011010 D
b1000110101011110011010 U
b10001100000001000000000000010100 k
b11100 !
b11100 M
b11100 l
b100 m
b100 ="
1o
b10100 j
b100000 @
b1000100011100000100000 C
1,
#434000
b100000 n
b100000 >"
b100011010101111001101 O
b100011010101111001101 y
b1 w
b100000 *
b100000 =
b100000 E
b1000100011100000100000 G
b1000100011100000100000 '
b1000100011100000100000 A
b1000100011100000100000 H
#435000
1R
b11111111111111100000001000000010 Q
b11111111111111100000001000000010 r
#436000
b1011 <
#440000
0,
#450000
b1000110101011110011010 n
b1000110101011110011010 >"
b100001010110011001110 v
b1000110101011110011010 j
b101 m
b101 ="
b100000 !
b100000 M
b100000 l
b1000010010100000100000 k
1T
b11111111111111100000001000000010 +
b11111111111111100000001000000010 ?
b11111111111111100000001000000010 D
b11111111111111100000001000000010 U
b100100 "
b100100 L
b100100 Y
b10000100011000000100000 X
b110 [
b11111111111111110000000100000001 )
b11111111111111110000000100000001 >
b11111111111111110000000100000001 F
b11111111111111110000000100000001 Z
b111 e
b101000 %
b101000 I
b101000 c
b1000100011100000100000 b
b100001010110011001110 u
b100101010101011001100 t
b100011010101111001101 ^
b100011010101111001101 p
b101100 $
b101100 J
b101100 g
b110000 #
b110000 K
b110000 &
b110000 B
b110000 h
b100000 7"
b10000010100000000100000 C
bx @
1,
#454000
b11111111111111110000000100000001 O
b11111111111111110000000100000001 y
b10 w
b100011010101111001101 N
b100011010101111001101 z
b1 x
b10000010100000000100000 G
b10000010100000000100000 '
b10000010100000000100000 A
b10000010100000000100000 H
bx *
bx =
bx E
#455000
0R
b100001010110011001110 Q
b100001010110011001110 r
#456000
b1100 <
#460000
0,
#470000
b11111111111111100000001000000010 n
b11111111111111100000001000000010 >"
b1000110101011110011010 8"
b110100 #
b110100 K
b110100 &
b110100 B
b110100 h
b110000 $
b110000 J
b110000 g
b11111111111111110000000100000001 ^
b11111111111111110000000100000001 p
b100001010110011001110 u
b11111111111011010101010100110100 t
b100011010101111001101 _
b100011010101111001101 q
b100011010101111001101 d
b10000010100000000100000 b
b101100 %
b101100 I
b101100 c
b1000 e
b111 [
b1000100011100000100000 X
b101000 "
b101000 L
b101000 Y
b100001010110011001110 +
b100001010110011001110 ?
b100001010110011001110 D
b100001010110011001110 U
0T
b10000100011000000100000 k
b100100 !
b100100 M
b100100 l
b110 m
b110 ="
b11111111111111100000001000000010 j
1i
b10101100100000111111111111111000 C
1,
#474000
b100000 O
b100000 y
b100 w
b100 N
b100 z
b11 x
b10101100100000111111111111111000 G
b10101100100000111111111111111000 '
b10101100100000111111111111111000 A
b10101100100000111111111111111000 H
#476000
b1101 <
#480000
0,
#490000
b100001010110011001110 n
b100001010110011001110 >"
b11000 v
0i
b100001010110011001110 j
b111 m
b111 ="
b101000 !
b101000 M
b101000 l
b1000100011100000100000 k
b101100 "
b101100 L
b101100 Y
b10000010100000000100000 X
b1000 [
b100011010101111001101 )
b100011010101111001101 >
b100011010101111001101 F
b100011010101111001101 Z
0f
1a
b11 e
b110000 %
b110000 I
b110000 c
b10101100100000111111111111111000 b
b100 d
b11111111111111111111111111111000 _
b11111111111111111111111111111000 q
b11000 u
b101000 t
b100000 ^
b100000 p
b110100 $
b110100 J
b110100 g
b111000 #
b111000 K
b111000 &
b111000 B
b111000 h
b11111111111111100000001000000010 9"
b10101100000001010000000000011100 C
1,
#494000
b0 O
b0 y
b0 w
b1000110101011110011010 N
b1000110101011110011010 z
b101 x
b10101100000001010000000000011100 G
b10101100000001010000000000011100 '
b10101100000001010000000000011100 A
b10101100000001010000000000011100 H
#495000
b11000 Q
b11000 r
#496000
b1110 <
#500000
0,
#510000
b11100 v
b100001010110011001110 :"
b111100 #
b111100 K
b111100 &
b111100 B
b111100 h
b111000 $
b111000 J
b111000 g
b0 ^
b0 p
b11100 u
b11111111111111111111111111100100 t
b11100 _
b11100 q
b1000110101011110011010 d
b10101100000001010000000000011100 b
b110100 %
b110100 I
b110100 c
b101 e
b100 )
b100 >
b100 F
b100 Z
b11 [
b10101100100000111111111111111000 X
b110000 "
b110000 L
b110000 Y
0\
1(
1W
b11000 +
b11000 ?
b11000 D
b11000 U
b10000010100000000100000 k
b101100 !
b101100 M
b101100 l
b1000 m
b1000 ="
b10101100000001100000000000100000 C
1,
#514000
b11111111111111100000001000000010 N
b11111111111111100000001000000010 z
b110 x
b10101100000001100000000000100000 G
b10101100000001100000000000100000 '
b10101100000001100000000000100000 A
b10101100000001100000000000100000 H
#515000
b11100 Q
b11100 r
#516000
b1111 <
#520000
0,
#530000
b100000 v
b11000 j
0o
b11 m
b11 ="
b110000 !
b110000 M
b110000 l
b10101100100000111111111111111000 k
b11100 +
b11100 ?
b11100 D
b11100 U
b110100 "
b110100 L
b110100 Y
b10101100000001010000000000011100 X
b101 [
b1000110101011110011010 )
b1000110101011110011010 >
b1000110101011110011010 F
b1000110101011110011010 Z
b110 e
b111000 %
b111000 I
b111000 c
b10101100000001100000000000100000 b
b11111111111111100000001000000010 d
b100000 u
b11111111111111111111111111100000 t
b100000 _
b100000 q
b111100 $
b111100 J
b111100 g
b1000000 #
b1000000 K
b1000000 &
b1000000 B
b1000000 h
b100001010110011001110 ;"
b10101100000001110000000000100100 C
b0 @
1,
#534000
b100001010110011001110 N
b100001010110011001110 z
b111 x
b10101100000001110000000000100100 G
b10101100000001110000000000100100 '
b10101100000001110000000000100100 A
b10101100000001110000000000100100 H
b0 *
b0 =
b0 E
#535000
b100000 Q
b100000 r
#536000
b10000 <
#540000
0,
#550000
b100100 v
b1000100 #
b1000100 K
b1000100 &
b1000100 B
b1000100 h
b1000000 $
b1000000 J
b1000000 g
b100100 u
b11111111111111111111111111011100 t
b100100 _
b100100 q
b100001010110011001110 d
b10101100000001110000000000100100 b
b111100 %
b111100 I
b111100 c
b111 e
b11111111111111100000001000000010 )
b11111111111111100000001000000010 >
b11111111111111100000001000000010 F
b11111111111111100000001000000010 Z
b110 [
b10101100000001100000000000100000 X
b111000 "
b111000 L
b111000 Y
b100000 +
b100000 ?
b100000 D
b100000 U
b10101100000001010000000000011100 k
b110100 !
b110100 M
b110100 l
b101 m
b101 ="
b11100 j
b10101100000010000000000000101000 C
1,
#554000
b1000 x
b10101100000010000000000000101000 G
b10101100000010000000000000101000 '
b10101100000010000000000000101000 A
b10101100000010000000000000101000 H
#555000
b100100 Q
b100100 r
#556000
b10001 <
#560000
0,
#570000
b101000 v
b100000 j
b110 m
b110 ="
b111000 !
b111000 M
b111000 l
b10101100000001100000000000100000 k
b100100 +
b100100 ?
b100100 D
b100100 U
b111100 "
b111100 L
b111100 Y
b10101100000001110000000000100100 X
b111 [
b100001010110011001110 )
b100001010110011001110 >
b100001010110011001110 F
b100001010110011001110 Z
b1000 e
b1000000 %
b1000000 I
b1000000 c
b10101100000010000000000000101000 b
b101000 u
b11111111111111111111111111011000 t
b101000 _
b101000 q
b1000100 $
b1000100 J
b1000100 g
b1001000 #
b1001000 K
b1001000 &
b1001000 B
b1001000 h
b1000010010100000100010 C
1,
#574000
b100011010101111001101 O
b100011010101111001101 y
b1 w
b100011010101111001101 N
b100011010101111001101 z
b1 x
b1000010010100000100010 G
b1000010010100000100010 '
b1000010010100000100010 A
b1000010010100000100010 H
#575000
b101000 Q
b101000 r
#576000
b10010 <
#580000
0,
#590000
b0 v
b1001100 #
b1001100 K
b1001100 &
b1001100 B
b1001100 h
b1001000 $
b1001000 J
b1001000 g
b100011010101111001101 ^
b100011010101111001101 p
b1000110101011110011010 u
b0 t
b100011010101111001101 _
b100011010101111001101 q
b100011010101111001101 d
b1000010010100000100010 b
b1000100 %
b1000100 I
b1000100 c
b101 e
b1 `
b1 s
0a
1f
b1000 [
b10101100000010000000000000101000 X
b1000000 "
b1000000 L
b1000000 Y
b101000 +
b101000 ?
b101000 D
b101000 U
b10101100000001110000000000100100 k
b111100 !
b111100 M
b111100 l
b111 m
b111 ="
b100100 j
b10000100011000000100010 C
1,
#594000
b11111111111111110000000100000001 O
b11111111111111110000000100000001 y
b10 w
b11111111111111110000000100000001 N
b11111111111111110000000100000001 z
b10 x
b10000100011000000100010 G
b10000100011000000100010 '
b10000100011000000100010 A
b10000100011000000100010 H
#595000
1P
b0 Q
b0 r
#596000
b10011 <
#600000
0,
#610000
b101000 j
b1000 m
b1000 ="
b1000000 !
b1000000 M
b1000000 l
b10101100000010000000000000101000 k
1V
b0 +
b0 ?
b0 D
b0 U
0(
0W
1\
b1000100 "
b1000100 L
b1000100 Y
b1000010010100000100010 X
b101 [
b100011010101111001101 )
b100011010101111001101 >
b100011010101111001101 F
b100011010101111001101 Z
b110 e
b1001000 %
b1001000 I
b1001000 c
b10000100011000000100010 b
b11111111111111110000000100000001 d
b11111111111111110000000100000001 _
b11111111111111110000000100000001 q
b11111111111111100000001000000010 u
b0 t
b11111111111111110000000100000001 ^
b11111111111111110000000100000001 p
b1001100 $
b1001100 J
b1001100 g
b1010000 #
b1010000 K
b1010000 &
b1010000 B
b1010000 h
b1000100011100000100010 C
1,
#614000
b100011010101111001101 O
b100011010101111001101 y
b1 w
b1000100011100000100010 G
b1000100011100000100010 '
b1000100011100000100010 A
b1000100011100000100010 H
#616000
b10100 <
#620000
0,
#630000
b100101010101011001100 v
b0 n
b0 >"
b1010100 #
b1010100 K
b1010100 &
b1010100 B
b1010100 h
b1010000 $
b1010000 J
b1010000 g
b100001010110011001110 u
b100101010101011001100 t
b100011010101111001101 ^
b100011010101111001101 p
b1000100011100000100010 b
b1001100 %
b1001100 I
b1001100 c
b111 e
b11111111111111110000000100000001 )
b11111111111111110000000100000001 >
b11111111111111110000000100000001 F
b11111111111111110000000100000001 Z
b110 [
b10000100011000000100010 X
b1001000 "
b1001000 L
b1001000 Y
b1000010010100000100010 k
b1000100 !
b1000100 M
b1000100 l
b101 m
b101 ="
1o
b0 j
b100011010101111001101 @
b10000010100000000100010 C
1,
#634000
b11111111111111110000000100000001 O
b11111111111111110000000100000001 y
b10 w
b100011010101111001101 N
b100011010101111001101 z
b1 x
b100011010101111001101 *
b100011010101111001101 =
b100011010101111001101 E
b10000010100000000100010 G
b10000010100000000100010 '
b10000010100000000100010 A
b10000010100000000100010 H
#635000
0P
b100101010101011001100 Q
b100101010101011001100 r
#636000
b10101 <
#640000
0,
#650000
b11111111111011010101010100110100 v
b110 m
b110 ="
b1001000 !
b1001000 M
b1001000 l
b10000100011000000100010 k
0V
b100101010101011001100 +
b100101010101011001100 ?
b100101010101011001100 D
b100101010101011001100 U
b1001100 "
b1001100 L
b1001100 Y
b1000100011100000100010 X
b111 [
b1000 e
b1010000 %
b1010000 I
b1010000 c
b10000010100000000100010 b
b100011010101111001101 d
b100011010101111001101 _
b100011010101111001101 q
b100001010110011001110 u
b11111111111011010101010100110100 t
b11111111111111110000000100000001 ^
b11111111111111110000000100000001 p
b1010100 $
b1010100 J
b1010100 g
b1011000 #
b1011000 K
b1011000 &
b1011000 B
b1011000 h
b0 8"
b10101100000001010000000000111100 C
1,
#654000
b0 O
b0 y
b0 w
b0 N
b0 z
b101 x
b10101100000001010000000000111100 G
b10101100000001010000000000111100 '
b10101100000001010000000000111100 A
b10101100000001010000000000111100 H
#655000
1R
b11111111111011010101010100110100 Q
b11111111111011010101010100110100 r
#656000
b10110 <
#660000
0,
#670000
b111100 v
b100101010101011001100 n
b100101010101011001100 >"
b0 9"
b1011100 #
b1011100 K
b1011100 &
b1011100 B
b1011100 h
b1011000 $
b1011000 J
b1011000 g
b0 ^
b0 p
b111100 u
b11111111111111111111111111000100 t
b111100 _
b111100 q
b0 d
b10101100000001010000000000111100 b
b1010100 %
b1010100 I
b1010100 c
b101 e
b0 `
b0 s
1a
0f
b100011010101111001101 )
b100011010101111001101 >
b100011010101111001101 F
b100011010101111001101 Z
b1000 [
b10000010100000000100010 X
b1010000 "
b1010000 L
b1010000 Y
b11111111111011010101010100110100 +
b11111111111011010101010100110100 ?
b11111111111011010101010100110100 D
b11111111111011010101010100110100 U
1T
b1000100011100000100010 k
b1001100 !
b1001100 M
b1001100 l
b111 m
b111 ="
b100101010101011001100 j
bx @
b10101100000001100000000001000000 C
1,
#674000
b110 x
bx *
bx =
bx E
b10101100000001100000000001000000 G
b10101100000001100000000001000000 '
b10101100000001100000000001000000 A
b10101100000001100000000001000000 H
#675000
0R
b111100 Q
b111100 r
#676000
b10111 <
#680000
0,
#690000
b11111111111011010101010100110100 n
b11111111111011010101010100110100 >"
b1000000 v
1i
b11111111111011010101010100110100 j
b1000 m
b1000 ="
b1010000 !
b1010000 M
b1010000 l
b10000010100000000100010 k
0T
b111100 +
b111100 ?
b111100 D
b111100 U
1(
1W
0\
b1010100 "
b1010100 L
b1010100 Y
b10101100000001010000000000111100 X
b101 [
b0 )
b0 >
b0 F
b0 Z
b110 e
b1011000 %
b1011000 I
b1011000 c
b10101100000001100000000001000000 b
b1000000 u
b11111111111111111111111111000000 t
b1000000 _
b1000000 q
b1011100 $
b1011100 J
b1011100 g
b1100000 #
b1100000 K
b1100000 &
b1100000 B
b1100000 h
b100101010101011001100 :"
b10101100000001110000000001000100 C
1,
#694000
b100101010101011001100 N
b100101010101011001100 z
b111 x
b10101100000001110000000001000100 G
b10101100000001110000000001000100 '
b10101100000001110000000001000100 A
b10101100000001110000000001000100 H
#695000
b1000000 Q
b1000000 r
#696000
b11000 <
#700000
0,
#710000
b1000100 v
b11111111111011010101010100110100 ;"
b1100100 #
b1100100 K
b1100100 &
b1100100 B
b1100100 h
b1100000 $
b1100000 J
b1100000 g
b1000100 u
b11111111111111111111111110111100 t
b1000100 _
b1000100 q
b100101010101011001100 d
b10101100000001110000000001000100 b
b1011100 %
b1011100 I
b1011100 c
b111 e
b110 [
b10101100000001100000000001000000 X
b1011000 "
b1011000 L
b1011000 Y
b1000000 +
b1000000 ?
b1000000 D
b1000000 U
b10101100000001010000000000111100 k
b1010100 !
b1010100 M
b1010100 l
b101 m
b101 ="
0o
b111100 j
0i
b0 @
b10101100000010000000000001001000 C
1,
