lab5/sim/pipelined_mips.vcd
$date
	Thu May 25 09:36:36 2017
$end
$version
	Icarus Verilog
$end
$timescale
	1ps
$end
$scope module tb_pipelined_mips $end
$var wire 32 ! pc_WB [31:0] $end
$var wire 32 " pc_MEM [31:0] $end
$var wire 32 # pc_IF [31:0] $end
$var wire 32 $ pc_ID [31:0] $end
$var wire 32 % pc_EXE [31:0] $end
$var wire 32 & inst_addr [31:0] $end
$var wire 32 ' inst [31:0] $end
$var wire 1 ( data_wr $end
$var wire 32 ) data_out [31:0] $end
$var wire 32 * data_in [31:0] $end
$var wire 32 + data_addr [31:0] $end
$var reg 1 , clk $end
$var reg 32 - res [31:0] $end
$var reg 1 . rst_n $end
$var integer 32 / add [31:0] $end
$var integer 32 0 addi [31:0] $end
$var integer 32 1 beq [31:0] $end
$var integer 32 2 bne [31:0] $end
$var integer 32 3 i [31:0] $end
$var integer 32 4 jal [31:0] $end
$var integer 32 5 jr [31:0] $end
$var integer 32 6 jump [31:0] $end
$var integer 32 7 ldst [31:0] $end
$var integer 32 8 nop_count [31:0] $end
$var integer 32 9 slt [31:0] $end
$var integer 32 : slti [31:0] $end
$var integer 32 ; sub [31:0] $end
$var integer 32 < watch_count [31:0] $end
$scope module D1 $end
$var wire 1 , clk $end
$var wire 32 = data_in [31:0] $end
$var wire 1 ( data_wr $end
$var wire 32 > data_out [31:0] $end
$var wire 32 ? data_addr [31:0] $end
$var reg 32 @ data_in_temp [31:0] $end
$upscope $end
$scope module I1 $end
$var wire 1 , clk $end
$var wire 32 A inst [31:0] $end
$var wire 32 B inst_addr [31:0] $end
$var reg 32 C inst_temp [31:0] $end
$upscope $end
$scope module UUT $end
$var wire 1 , clk $end
$var wire 32 D data_addr [31:0] $end
$var wire 32 E data_in [31:0] $end
$var wire 32 F data_out [31:0] $end
$var wire 1 ( data_wr $end
$var wire 32 G if_id_inst [31:0] $end
$var wire 32 H inst [31:0] $end
$var wire 32 I pc_EXE [31:0] $end
$var wire 32 J pc_ID [31:0] $end
$var wire 32 K pc_IF [31:0] $end
$var wire 32 L pc_MEM [31:0] $end
$var wire 32 M pc_WB [31:0] $end
$var wire 1 . rst_n $end
$var wire 32 N rd_dataB [31:0] $end
$var wire 32 O rd_dataA [31:0] $end
$var wire 5 P rd_addrB [4:0] $end
$var wire 5 Q rd_addrA [4:0] $end
$var wire 1 R aluZ $end
$var wire 32 S aluRes [31:0] $end
$var wire 1 T aluNeg $end
$var reg 1 U branch_taken $end
$var reg 1 V exe_mem_aluNeg $end
$var reg 32 W exe_mem_aluRes [31:0] $end
$var reg 1 X exe_mem_aluZ $end
$var reg 1 Y exe_mem_data_wr $end
$var reg 32 Z exe_mem_inst [31:0] $end
$var reg 32 [ exe_mem_inst_addr [31:0] $end
$var reg 32 \ exe_mem_storeOp [31:0] $end
$var reg 5 ] exe_mem_wr_addr [4:0] $end
$var reg 1 ^ exe_mem_wr_en $end
$var reg 1 _ flush_jump $end
$var reg 32 ` id_exe_aluOpA [31:0] $end
$var reg 32 a id_exe_aluOpB [31:0] $end
$var reg 2 b id_exe_aluSel [1:0] $end
$var reg 1 c id_exe_data_wr $end
$var reg 32 d id_exe_inst [31:0] $end
$var reg 32 e id_exe_inst_addr [31:0] $end
$var reg 32 f id_exe_storeOp [31:0] $end
$var reg 5 g id_exe_wr_addr [4:0] $end
$var reg 1 h id_exe_wr_en $end
$var reg 32 i if_id_inst_addr [31:0] $end
$var reg 32 j if_id_inst_hold [31:0] $end
$var reg 32 k inst_addr [31:0] $end
$var reg 1 l mem_wb_aluNeg $end
$var reg 32 m mem_wb_aluRes [31:0] $end
$var reg 32 n mem_wb_inst [31:0] $end
$var reg 32 o mem_wb_inst_addr [31:0] $end
$var reg 5 p mem_wb_wr_addr [4:0] $end
$var reg 32 q mem_wb_wr_data [31:0] $end
$var reg 1 r mem_wb_wr_en $end
$var reg 1 s stall $end
$var reg 2 t stall_counter [1:0] $end
$scope module A1 $end
$var wire 32 u opA [31:0] $end
$var wire 32 v opB [31:0] $end
$var wire 32 w res [31:0] $end
$var wire 2 x sel [1:0] $end
$var wire 1 R z $end
$var wire 32 y res_sub [31:0] $end
$var wire 32 z res_add [31:0] $end
$var wire 1 T neg $end
$var reg 32 { res_temp [31:0] $end
$upscope $end
$scope module R1 $end
$var wire 1 , clk $end
$var wire 5 | rd_addrA [4:0] $end
$var wire 5 } rd_addrB [4:0] $end
$var wire 32 ~ rd_dataA [31:0] $end
$var wire 32 !" rd_dataB [31:0] $end
$var wire 32 "" reg0 [31:0] $end
$var wire 32 #" reg1 [31:0] $end
$var wire 32 $" reg10 [31:0] $end
$var wire 32 %" reg11 [31:0] $end
$var wire 32 &" reg12 [31:0] $end
$var wire 32 '" reg13 [31:0] $end
$var wire 32 (" reg14 [31:0] $end
$var wire 32 )" reg15 [31:0] $end
$var wire 32 *" reg16 [31:0] $end
$var wire 32 +" reg17 [31:0] $end
$var wire 32 ," reg18 [31:0] $end
$var wire 32 -" reg19 [31:0] $end
$var wire 32 ." reg2 [31:0] $end
$var wire 32 /" reg20 [31:0] $end
$var wire 32 0" reg21 [31:0] $end
$var wire 32 1" reg22 [31:0] $end
$var wire 32 2" reg23 [31:0] $end
$var wire 32 3" reg24 [31:0] $end
$var wire 32 4" reg25 [31:0] $end
$var wire 32 5" reg26 [31:0] $end
$var wire 32 6" reg27 [31:0] $end
$var wire 32 7" reg28 [31:0] $end
$var wire 32 8" reg29 [31:0] $end
$var wire 32 9" reg3 [31:0] $end
$var wire 32 :" reg30 [31:0] $end
$var wire 32 ;" reg31 [31:0] $end
$var wire 32 <" reg4 [31:0] $end
$var wire 32 =" reg5 [31:0] $end
$var wire 32 >" reg6 [31:0] $end
$var wire 32 ?" reg7 [31:0] $end
$var wire 32 @" reg8 [31:0] $end
$var wire 32 A" reg9 [31:0] $end
$var wire 1 . rst_n $end
$var wire 5 B" wr_addr [4:0] $end
$var wire 32 C" wr_data [31:0] $end
$var wire 1 r wr_en $end
$upscope $end
$upscope $end
$upscope $end
$enddefinitions $end
#0
$dumpvars
b0 C"
b0 B"
b0 A"
b0 @"
b0 ?"
b0 >"
b0 ="
b0 <"
b0 ;"
b0 :"
b0 9"
b0 8"
b0 7"
b0 6"
b0 5"
b0 4"
b0 3"
b0 2"
b0 1"
b0 0"
b0 /"
b0 ."
b0 -"
b0 ,"
b0 +"
b0 *"
b0 )"
b0 ("
b0 '"
b0 &"
b0 %"
b0 $"
b0 #"
b0 ""
b0 !"
b0 ~
b0 }
b0 |
b0 {
b0 z
b0 y
b0 x
bx w
b0 v
b0 u
b0 t
0s
0r
b0 q
b0 p
b0 o
b0 n
b0 m
0l
b0 k
b0 j
b0 i
0h
b0 g
b0 f
b0 e
b0 d
0c
b0 b
b0 a
b0 `
0_
0^
b0 ]
b0 \
b0 [
b0 Z
0Y
0X
b0 W
0V
0U
xT
bx S
xR
b0 Q
b0 P
b0 O
b0 N
b0 M
b0 L
b0 K
b0 J
b0 I
bx H
bx G
b0 F
bx E
b0 D
bx C
b0 B
bx A
bx @
b0 ?
b0 >
bx =
b0 <
bx ;
bx :
bx 9
b0 8
bx 7
bx 6
bx 5
bx 4
b0 3
bx 2
bx 1
bx 0
bx /
0.
bx -
0,
b0 +
bx *
b0 )
0(
bx '
b0 &
b0 %
b0 $
b0 #
b0 "
b0 !
$end
#5000
b0 S
b0 w
0T
1R
#10000
b10001100000000010000000000000000 C
b100011010101111001101 @
1,
#14000
b10001100000000010000000000000000 G
b10001100000000010000000000000000 '
b10001100000000010000000000000000 A
b10001100000000010000000000000000 H
b100011010101111001101 *
b100011010101111001101 =
b100011010101111001101 E
#20000
0,
#30000
1,
#40000
0,
#50000
1,
#60000
0,
#70000
1,
#80000
0,
#90000
1,
#100000
0,
#110000
1,
#120000
0,
#130000
1,
#140000
0,
#150000
1,
#160000
0,
#170000
1,
#180000
0,
#190000
1,
#200000
0,
#210000
1,
#216000
1.
#220000
b1 P
b1 }
b10001100000000010000000000000000 j
0,
#230000
b100 #
b100 K
b100 &
b100 B
b100 k
b10001100000000010000000000000000 d
b1 g
1h
1X
1,
#236000
b1 <
#240000
0,
#250000
1^
b10001100000000010000000000000000 Z
b1 ]
b100 $
b100 J
b100 i
b1000 #
b1000 K
b1000 &
b1000 B
b1000 k
b10001100000000100000000000000100 C
1,
#254000
b10001100000000100000000000000100 G
b10001100000000100000000000000100 '
b10001100000000100000000000000100 A
b10001100000000100000000000000100 H
#256000
b10 <
#260000
b10 P
b10 }
b10001100000000100000000000000100 j
0,
#270000
b100 {
b100011010101111001101 q
b100011010101111001101 C"
b1100 #
b1100 K
b1100 &
b1100 B
b1100 k
b1000 $
b1000 J
b1000 i
b100 z
b11111111111111111111111111111100 y
b100 a
b100 v
b10001100000000100000000000000100 d
b100 %
b100 I
b100 e
b10 g
b10001100000000010000000000000000 n
b1 p
b1 B"
1r
b10001100000000110000000000001000 C
1,
#274000
b10001100000000110000000000001000 G
b10001100000000110000000000001000 '
b10001100000000110000000000001000 A
b10001100000000110000000000001000 H
#275000
0R
b100 S
b100 w
#276000
b11 <
#280000
b11 P
b11 }
b10001100000000110000000000001000 j
0,
#290000
b1000 {
0X
b100 +
b100 ?
b100 D
b100 W
b100 "
b100 L
b100 [
b10001100000000100000000000000100 Z
b10 ]
b11 g
b1000 %
b1000 I
b1000 e
b10001100000000110000000000001000 d
b1000 z
b11111111111111111111111111111000 y
b1000 a
b1000 v
b1100 $
b1100 J
b1100 i
b10000 #
b10000 K
b10000 &
b10000 B
b10000 k
b100011010101111001101 #"
b10101100000000010000000000010000 C
1,
#294000
b10101100000000010000000000010000 G
b10101100000000010000000000010000 '
b10101100000000010000000000010000 A
b10101100000000010000000000010000 H
#295000
b1000 S
b1000 w
#296000
b100 <
#300000
1s
b100011010101111001101 N
b100011010101111001101 !"
b1 P
b1 }
b10101100000000010000000000010000 j
b1 t
0,
#310000
b10000 {
b10000 z
b11111111111111111111111111110000 y
b10000 a
b10000 v
b100011010101111001101 f
b10101100000000010000000000010000 d
b1100 %
b1100 I
b1100 e
b1 g
0h
b11 ]
b10001100000000110000000000001000 Z
b1000 "
b1000 L
b1000 [
b1000 +
b1000 ?
b1000 D
b1000 W
b10001100000000100000000000000100 n
b100 !
b100 M
b100 o
b10 p
b10 B"
b100 m
b11111111111111110000000100000001 @
b10101100011000100000000000001000 C
1,
#314000
b11111111111111110000000100000001 q
b11111111111111110000000100000001 C"
b11111111111111110000000100000001 *
b11111111111111110000000100000001 =
b11111111111111110000000100000001 E
b10101100011000100000000000001000 G
b10101100011000100000000000001000 '
b10101100011000100000000000001000 A
b10101100011000100000000000001000 H
#315000
b10000 S
b10000 w
#316000
b101 <
#320000
0s
b0 t
0,
#330000
b1000 m
b11 p
b11 B"
b1000 !
b1000 M
b1000 o
b10001100000000110000000000001000 n
b10000 +
b10000 ?
b10000 D
b10000 W
0^
b1100 "
b1100 L
b1100 [
b10101100000000010000000000010000 Z
b1 ]
b100011010101111001101 )
b100011010101111001101 >
b100011010101111001101 F
b100011010101111001101 \
1c
b10000 $
b10000 J
b10000 i
b10100 #
b10100 K
b10100 &
b10100 B
b10100 k
b11111111111111110000000100000001 ."
b100 @
1,
#334000
b100 q
b100 C"
b100 *
b100 =
b100 E
#336000
b110 <
#340000
1s
b11 Q
b11 |
b11111111111111110000000100000001 N
b11111111111111110000000100000001 !"
b10 P
b10 }
b10101100011000100000000000001000 j
b1 t
0,
#350000
b1000 {
b100 O
b100 ~
b100 9"
b1000 z
b11111111111111111111111111111000 y
b1000 a
b1000 v
b11111111111111110000000100000001 f
b10101100011000100000000000001000 d
b10000 %
b10000 I
b10000 e
b10 g
0c
1(
1Y
b10101100000000010000000000010000 n
b1100 !
b1100 M
b1100 o
b1 p
b1 B"
0r
b10000 m
b0 @
b10001100000001000000000000010100 C
1,
#354000
b0 *
b0 =
b0 E
b10001100000001000000000000010100 G
b10001100000001000000000000010100 '
b10001100000001000000000000010100 A
b10001100000001000000000000010100 H
#355000
b1000 S
b1000 w
#356000
b111 <
#360000
0s
b0 t
0,
#370000
b1100 {
b1000 +
b1000 ?
b1000 D
b1000 W
0(
0Y
b10000 "
b10000 L
b10000 [
b10101100011000100000000000001000 Z
b10 ]
b11111111111111110000000100000001 )
b11111111111111110000000100000001 >
b11111111111111110000000100000001 F
b11111111111111110000000100000001 \
1c
b1100 z
b11111111111111111111111111111100 y
b100 `
b100 u
b10100 $
b10100 J
b10100 i
b11000 #
b11000 K
b11000 &
b11000 B
b11000 k
1,
#375000
b1100 S
b1100 w
#376000
b1000 <
#380000
b0 O
b0 ~
b0 Q
b0 |
b0 N
b0 !"
b100 P
b100 }
b10001100000001000000000000010100 j
0,
#390000
b10100 {
b11100 #
b11100 K
b11100 &
b11100 B
b11100 k
b11000 $
b11000 J
b11000 i
b0 `
b0 u
b10100 z
b11111111111111111111111111101100 y
b10100 a
b10100 v
b0 f
b10001100000001000000000000010100 d
b10100 %
b10100 I
b10100 e
b100 g
0c
1h
1(
1Y
b1100 +
b1100 ?
b1100 D
b1100 W
b10101100011000100000000000001000 n
b10000 !
b10000 M
b10000 o
b10 p
b10 B"
b1000 m
b100 @
b1000010010100000100000 C
1,
#394000
b100 *
b100 =
b100 E
b1000010010100000100000 G
b1000010010100000100000 '
b1000010010100000100000 A
b1000010010100000100000 H
#395000
b10100 S
b10100 w
#396000
b1001 <
#400000
b100011010101111001101 O
b100011010101111001101 ~
b1 Q
b1 |
b100011010101111001101 N
b100011010101111001101 !"
b1 P
b1 }
b1000010010100000100000 j
0,
#410000
b1000110101011110011010 {
b1100 m
b10100 +
b10100 ?
b10100 D
b10100 W
0(
0Y
1^
b10100 "
b10100 L
b10100 [
b10001100000001000000000000010100 Z
b100 ]
b0 )
b0 >
b0 F
b0 \
b101 g
b11000 %
b11000 I
b11000 e
b1000010010100000100000 d
b100011010101111001101 f
b100011010101111001101 a
b100011010101111001101 v
b1000110101011110011010 z
b0 y
b100011010101111001101 `
b100011010101111001101 u
b11100 $
b11100 J
b11100 i
b100000 #
b100000 K
b100000 &
b100000 B
b100000 k
b10000100011000000100000 C
b0 @
1,
#414000
b10000100011000000100000 G
b10000100011000000100000 '
b10000100011000000100000 A
b10000100011000000100000 H
b0 *
b0 =
b0 E
#415000
b1000110101011110011010 S
b1000110101011110011010 w
#416000
b1010 <
#420000
b11111111111111110000000100000001 O
b11111111111111110000000100000001 ~
b10 Q
b10 |
b11111111111111110000000100000001 N
b11111111111111110000000100000001 !"
b10 P
b10 }
b10000100011000000100000 j
0,
#430000
b11111111111111100000001000000010 {
b0 q
b0 C"
b100100 #
b100100 K
b100100 &
b100100 B
b100100 k
b100000 $
b100000 J
b100000 i
b11111111111111110000000100000001 `
b11111111111111110000000100000001 u
b11111111111111100000001000000010 z
b0 y
b11111111111111110000000100000001 a
b11111111111111110000000100000001 v
b11111111111111110000000100000001 f
b10000100011000000100000 d
b11100 %
b11100 I
b11100 e
b110 g
b100011010101111001101 )
b100011010101111001101 >
b100011010101111001101 F
b100011010101111001101 \
b101 ]
b1000010010100000100000 Z
b11000 "
b11000 L
b11000 [
b1000110101011110011010 +
b1000110101011110011010 ?
b1000110101011110011010 D
b1000110101011110011010 W
b10001100000001000000000000010100 n
b10100 !
b10100 M
b10100 o
b100 p
b100 B"
1r
b10100 m
b100000 @
b1000100011100000100000 C
1,
#434000
b100000 q
b100000 C"
b100000 *
b100000 =
b100000 E
b1000100011100000100000 G
b1000100011100000100000 '
b1000100011100000100000 A
b1000100011100000100000 H
#435000
1T
b11111111111111100000001000000010 S
b11111111111111100000001000000010 w
#436000
b1011 <
#440000
b100011010101111001101 O
b100011010101111001101 ~
b1 Q
b1 |
b1000100011100000100000 j
0,
#450000
b1000110101011110011010 q
b1000110101011110011010 C"
b100001010110011001110 {
b1000110101011110011010 m
b101 p
b101 B"
b11000 !
b11000 M
b11000 o
b1000010010100000100000 n
1V
b11111111111111100000001000000010 +
b11111111111111100000001000000010 ?
b11111111111111100000001000000010 D
b11111111111111100000001000000010 W
b11100 "
b11100 L
b11100 [
b10000100011000000100000 Z
b110 ]
b11111111111111110000000100000001 )
b11111111111111110000000100000001 >
b11111111111111110000000100000001 F
b11111111111111110000000100000001 \
b111 g
b100000 %
b100000 I
b100000 e
b1000100011100000100000 d
b100001010110011001110 z
b100101010101011001100 y
b100011010101111001101 `
b100011010101111001101 u
b100100 $
b100100 J
b100100 i
b101000 #
b101000 K
b101000 &
b101000 B
b101000 k
b100000 <"
b10000010100000000100000 C
bx @
1,
#454000
b10000010100000000100000 G
b10000010100000000100000 '
b10000010100000000100000 A
b10000010100000000100000 H
bx *
bx =
bx E
#455000
0T
b100001010110011001110 S
b100001010110011001110 w
#456000
b1100 <
#460000
b11111111111111110000000100000001 O
b11111111111111110000000100000001 ~
b10 Q
b10 |
b100011010101111001101 N
b100011010101111001101 !"
b1 P
b1 }
b10000010100000000100000 j
0,
#470000
b11111111111111100000001000000010 q
b11111111111111100000001000000010 C"
b1000110101011110011010 ="
b101100 #
b101100 K
b101100 &
b101100 B
b101100 k
b101000 $
b101000 J
b101000 i
b11111111111111110000000100000001 `
b11111111111111110000000100000001 u
b100001010110011001110 z
b11111111111011010101010100110100 y
b100011010101111001101 a
b100011010101111001101 v
b100011010101111001101 f
b10000010100000000100000 d
b100100 %
b100100 I
b100100 e
b1000 g
b111 ]
b1000100011100000100000 Z
b100000 "
b100000 L
b100000 [
b100001010110011001110 +
b100001010110011001110 ?
b100001010110011001110 D
b100001010110011001110 W
0V
b10000100011000000100000 n
b11100 !
b11100 M
b11100 o
b110 p
b110 B"
b11111111111111100000001000000010 m
1l
b10101100100000111111111111111000 C
1,
#474000
b10101100100000111111111111111000 G
b10101100100000111111111111111000 '
b10101100100000111111111111111000 A
b10101100100000111111111111111000 H
#476000
b1101 <
#480000
b100000 O
b100000 ~
b100 Q
b100 |
b100 N
b100 !"
b11 P
b11 }
b10101100100000111111111111111000 j
0,
#490000
b100001010110011001110 q
b100001010110011001110 C"
b11000 {
0l
b100001010110011001110 m
b111 p
b111 B"
b100000 !
b100000 M
b100000 o
b1000100011100000100000 n
b100100 "
b100100 L
b100100 [
b10000010100000000100000 Z
b1000 ]
b100011010101111001101 )
b100011010101111001101 >
b100011010101111001101 F
b100011010101111001101 \
0h
1c
b11 g
b101000 %
b101000 I
b101000 e
b10101100100000111111111111111000 d
b100 f
b11111111111111111111111111111000 a
b11111111111111111111111111111000 v
b11000 z
b101000 y
b100000 `
b100000 u
b101100 $
b101100 J
b101100 i
b110000 #
b110000 K
b110000 &
b110000 B
b110000 k
b11111111111111100000001000000010 >"
b10101100000001010000000000011100 C
1,
#494000
b10101100000001010000000000011100 G
b10101100000001010000000000011100 '
b10101100000001010000000000011100 A
b10101100000001010000000000011100 H
#495000
b11000 S
b11000 w
#496000
b1110 <
#500000
b0 O
b0 ~
b0 Q
b0 |
b1000110101011110011010 N
b1000110101011110011010 !"
b101 P
b101 }
b10101100000001010000000000011100 j
0,
#510000
b11100 {
b100001010110011001110 ?"
b110100 #
b110100 K
b110100 &
b110100 B
b110100 k
b110000 $
b110000 J
b110000 i
b0 `
b0 u
b11100 z
b11111111111111111111111111100100 y
b11100 a
b11100 v
b1000110101011110011010 f
b10101100000001010000000000011100 d
b101100 %
b101100 I
b101100 e
b101 g
b100 )
b100 >
b100 F
b100 \
b11 ]
b10101100100000111111111111111000 Z
b101000 "
b101000 L
b101000 [
0^
1(
1Y
b11000 +
b11000 ?
b11000 D
b11000 W
b10000010100000000100000 n
b100100 !
b100100 M
b100100 o
b1000 p
b1000 B"
b10101100000001100000000000100000 C
1,
#514000
b10101100000001100000000000100000 G
b10101100000001100000000000100000 '
b10101100000001100000000000100000 A
b10101100000001100000000000100000 H
#515000
b11100 S
b11100 w
#516000
b1111 <
#520000
b11111111111111100000001000000010 N
b11111111111111100000001000000010 !"
b110 P
b110 }
b10101100000001100000000000100000 j
0,
#530000
b100000 {
b11000 m
0r
b11 p
b11 B"
b101000 !
b101000 M
b101000 o
b10101100100000111111111111111000 n
b11100 +
b11100 ?
b11100 D
b11100 W
b101100 "
b101100 L
b101100 [
b10101100000001010000000000011100 Z
b101 ]
b1000110101011110011010 )
b1000110101011110011010 >
b1000110101011110011010 F
b1000110101011110011010 \
b110 g
b110000 %
b110000 I
b110000 e
b10101100000001100000000000100000 d
b11111111111111100000001000000010 f
b100000 z
b11111111111111111111111111100000 y
b100000 a
b100000 v
b110100 $
b110100 J
b110100 i
b111000 #
b111000 K
b111000 &
b111000 B
b111000 k
b100001010110011001110 @"
b10101100000001110000000000100100 C
b0 @
1,
#534000
b10101100000001110000000000100100 G
b10101100000001110000000000100100 '
b10101100000001110000000000100100 A
b10101100000001110000000000100100 H
b0 *
b0 =
b0 E
#535000
b100000 S
b100000 w
#536000
b10000 <
#540000
b100001010110011001110 N
b100001010110011001110 !"
b111 P
b111 }
b10101100000001110000000000100100 j
0,
#550000
b100100 {
b111100 #
b111100 K
b111100 &
b111100 B
b111100 k
b111000 $
b111000 J
b111000 i
b100100 z
b11111111111111111111111111011100 y
b100100 a
b100100 v
b100001010110011001110 f
b10101100000001110000000000100100 d
b110100 %
b110100 I
b110100 e
b111 g
b11111111111111100000001000000010 )
b11111111111111100000001000000010 >
b11111111111111100000001000000010 F
b11111111111111100000001000000010 \
b110 ]
b10101100000001100000000000100000 Z
b110000 "
b110000 L
b110000 [
b100000 +
b100000 ?
b100000 D
b100000 W
b10101100000001010000000000011100 n
b101100 !
b101100 M
b101100 o
b101 p
b101 B"
b11100 m
b10101100000010000000000000101000 C
1,
#554000
b10101100000010000000000000101000 G
b10101100000010000000000000101000 '
b10101100000010000000000000101000 A
b10101100000010000000000000101000 H
#555000
b100100 S
b100100 w
#556000
b10001 <
#560000
b1000 P
b1000 }
b10101100000010000000000000101000 j
0,
#570000
b101000 {
b100000 m
b110 p
b110 B"
b110000 !
b110000 M
b110000 o
b10101100000001100000000000100000 n
b100100 +
b100100 ?
b100100 D
b100100 W
b110100 "
b110100 L
b110100 [
b10101100000001110000000000100100 Z
b111 ]
b100001010110011001110 )
b100001010110011001110 >
b100001010110011001110 F
b100001010110011001110 \
b1000 g
b111000 %
b111000 I
b111000 e
b10101100000010000000000000101000 d
b101000 z
b11111111111111111111111111011000 y
b101000 a
b101000 v
b111100 $
b111100 J
b111100 i
b1000000 #
b1000000 K
b1000000 &
b1000000 B
b1000000 k
b1000010010100000100010 C
1,
#574000
b1000010010100000100010 G
b1000010010100000100010 '
b1000010010100000100010 A
b1000010010100000100010 H
#575000
b101000 S
b101000 w
#576000
b10010 <
#580000
b100011010101111001101 O
b100011010101111001101 ~
b1 Q
b1 |
b100011010101111001101 N
b100011010101111001101 !"
b1 P
b1 }
b1000010010100000100010 j
0,
#590000
b0 {
b1000100 #
b1000100 K
b1000100 &
b1000100 B
b1000100 k
b1000000 $
b1000000 J
b1000000 i
b100011010101111001101 `
b100011010101111001101 u
b1000110101011110011010 z
b0 y
b100011010101111001101 a
b100011010101111001101 v
b100011010101111001101 f
b1000010010100000100010 d
b111100 %
b111100 I
b111100 e
b101 g
b1 b
b1 x
0c
1h
b1000 ]
b10101100000010000000000000101000 Z
b111000 "
b111000 L
b111000 [
b101000 +
b101000 ?
b101000 D
b101000 W
b10101100000001110000000000100100 n
b110100 !
b110100 M
b110100 o
b111 p
b111 B"
b100100 m
b10000100011000000100010 C
1,
#594000
b10000100011000000100010 G
b10000100011000000100010 '
b10000100011000000100010 A
b10000100011000000100010 H
#595000
1R
b0 S
b0 w
#596000
b10011 <
#600000
b11111111111111110000000100000001 O
b11111111111111110000000100000001 ~
b10 Q
b10 |
b11111111111111110000000100000001 N
b11111111111111110000000100000001 !"
b10 P
b10 }
b10000100011000000100010 j
0,
#610000
b101000 m
b1000 p
b1000 B"
b111000 !
b111000 M
b111000 o
b10101100000010000000000000101000 n
1X
b0 +
b0 ?
b0 D
b0 W
0(
0Y
1^
b111100 "
b111100 L
b111100 [
b1000010010100000100010 Z
b101 ]
b100011010101111001101 )
b100011010101111001101 >
b100011010101111001101 F
b100011010101111001101 \
b110 g
b1000000 %
b1000000 I
b1000000 e
b10000100011000000100010 d
b11111111111111110000000100000001 f
b11111111111111110000000100000001 a
b11111111111111110000000100000001 v
b11111111111111100000001000000010 z
b0 y
b11111111111111110000000100000001 `
b11111111111111110000000100000001 u
b1000100 $
b1000100 J
b1000100 i
b1001000 #
b1001000 K
b1001000 &
b1001000 B
b1001000 k
b1000100011100000100010 C
1,
#614000
b1000100011100000100010 G
b1000100011100000100010 '
b1000100011100000100010 A
b1000100011100000100010 H
#616000
b10100 <
#620000
b100011010101111001101 O
b100011010101111001101 ~
b1 Q
b1 |
b1000100011100000100010 j
0,
#630000
b100101010101011001100 {
b0 q
b0 C"
b1001100 #
b1001100 K
b1001100 &
b1001100 B
b1001100 k
b1001000 $
b1001000 J
b1001000 i
b100001010110011001110 z
b100101010101011001100 y
b100011010101111001101 `
b100011010101111001101 u
b1000100011100000100010 d
b1000100 %
b1000100 I
b1000100 e
b111 g
b11111111111111110000000100000001 )
b11111111111111110000000100000001 >
b11111111111111110000000100000001 F
b11111111111111110000000100000001 \
b110 ]
b10000100011000000100010 Z
b1000000 "
b1000000 L
b1000000 [
b1000010010100000100010 n
b111100 !
b111100 M
b111100 o
b101 p
b101 B"
1r
b0 m
b100011010101111001101 @
b10000010100000000100010 C
1,
#634000
b100011010101111001101 *
b100011010101111001101 =
b100011010101111001101 E
b10000010100000000100010 G
b10000010100000000100010 '
b10000010100000000100010 A
b10000010100000000100010 H
#635000
0R
b100101010101011001100 S
b100101010101011001100 w
#636000
b10101 <
#640000
b11111111111111110000000100000001 O
b11111111111111110000000100000001 ~
b10 Q
b10 |
b100011010101111001101 N
b100011010101111001101 !"
b1 P
b1 }
b10000010100000000100010 j
0,
#650000
b11111111111011010101010100110100 {
b110 p
b110 B"
b1000000 !
b1000000 M
b1000000 o
b10000100011000000100010 n
0X
b100101010101011001100 +
b100101010101011001100 ?
b100101010101011001100 D
b100101010101011001100 W
b1000100 "
b1000100 L
b1000100 [
b1000100011100000100010 Z
b111 ]
b1000 g
b1001000 %
b1001000 I
b1001000 e
b10000010100000000100010 d
b100011010101111001101 f
b100011010101111001101 a
b100011010101111001101 v
b100001010110011001110 z
b11111111111011010101010100110100 y
b11111111111111110000000100000001 `
b11111111111111110000000100000001 u
b1001100 $
b1001100 J
b1001100 i
b1010000 #
b1010000 K
b1010000 &
b1010000 B
b1010000 k
b0 ="
b10101100000001010000000000111100 C
1,
#654000
b10101100000001010000000000111100 G
b10101100000001010000000000111100 '
b10101100000001010000000000111100 A
b10101100000001010000000000111100 H
#655000
1T
b11111111111011010101010100110100 S
b11111111111011010101010100110100 w
#656000
b10110 <
#660000
b0 O
b0 ~
b0 Q
b0 |
b0 N
b0 !"
b101 P
b101 }
b10101100000001010000000000111100 j
0,
#670000
b111100 {
b100101010101011001100 q
b100101010101011001100 C"
b0 >"
b1010100 #
b1010100 K
b1010100 &
b1010100 B
b1010100 k
b1010000 $
b1010000 J
b1010000 i
b0 `
b0 u
b111100 z
b11111111111111111111111111000100 y
b111100 a
b111100 v
b0 f
b10101100000001010000000000111100 d
b1001100 %
b1001100 I
b1001100 e
b101 g
b0 b
b0 x
1c
0h
b100011010101111001101 )
b100011010101111001101 >
b100011010101111001101 F
b100011010101111001101 \
b1000 ]
b10000010100000000100010 Z
b1001000 "
b1001000 L
b1001000 [
b11111111111011010101010100110100 +
b11111111111011010101010100110100 ?
b11111111111011010101010100110100 D
b11111111111011010101010100110100 W
1V
b1000100011100000100010 n
b1000100 !
b1000100 M
b1000100 o
b111 p
b111 B"
b100101010101011001100 m
bx @
b10101100000001100000000001000000 C
1,
#674000
bx *
bx =
bx E
b10101100000001100000000001000000 G
b10101100000001100000000001000000 '
b10101100000001100000000001000000 A
b10101100000001100000000001000000 H
#675000
0T
b111100 S
b111100 w
#676000
b10111 <
#680000
b110 P
b110 }
b10101100000001100000000001000000 j
0,
#690000
b11111111111011010101010100110100 q
b11111111111011010101010100110100 C"
b1000000 {
1l
b11111111111011010101010100110100 m
b1000 p
b1000 B"
b1001000 !
b1001000 M
b1001000 o
b10000010100000000100010 n
0V
b111100 +
b111100 ?
b111100 D
b111100 W
1(
1Y
0^
b1001100 "
b1001100 L
b1001100 [
b10101100000001010000000000111100 Z
b101 ]
b0 )
b0 >
b0 F
b0 \
b110 g
b1010000 %
b1010000 I
b1010000 e
b10101100000001100000000001000000 d
b1000000 z
b11111111111111111111111111000000 y
b1000000 a
b1000000 v
b1010100 $
b1010100 J
b1010100 i
b1011000 #
b1011000 K
b1011000 &
b1011000 B
b1011000 k
b100101010101011001100 ?"
b10101100000001110000000001000100 C
1,
#694000
b10101100000001110000000001000100 G
b10101100000001110000000001000100 '
b10101100000001110000000001000100 A
b10101100000001110000000001000100 H
#695000
b1000000 S
b1000000 w
#696000
b11000 <
#700000
b100101010101011001100 N
b100101010101011001100 !"
b111 P
b111 }
b10101100000001110000000001000100 j
0,
#710000
b1000100 {
b11111111111011010101010100110100 @"
b1011100 #
b1011100 K
b1011100 &
b1011100 B
b1011100 k
b1011000 $
b1011000 J
b1011000 i
b1000100 z
b11111111111111111111111110111100 y
b1000100 a
b1000100 v
b100101010101011001100 f
b10101100000001110000000001000100 d
b1010100 %
b1010100 I
b1010100 e
b111 g
b110 ]
b10101100000001100000000001000000 Z
b1010000 "
b1010000 L
b1010000 [
b1000000 +
b1000000 ?
b1000000 D
b1000000 W
b10101100000001010000000000111100 n
b1001100 !
b1001100 M
b1001100 o
b101 p
b101 B"
0r
b111100 m
0l
b0 @
b10101100000010000000000001001000 C
1,
