frompc/lab4_2/lab4/sim2/tb_pipelined_mips.vcd
$date
	Tue Apr 18 16:37:52 2017
$end

$version
	Synopsys VCS version I-2014.03_Full64
$end

$timescale
	1ps
$end

$comment Csum: 1 7c4c93135d62d203 $end


$scope module tb_pipelined_mips $end
$var reg 1 ! clk $end
$var reg 1 " rst_n $end
$var wire 32 # inst_addr [31:0] $end
$var wire 32 $ inst [31:0] $end
$var wire 32 % data_addr [31:0] $end
$var wire 32 & data_in [31:0] $end
$var wire 32 ' data_out [31:0] $end
$var wire 1 ( data_wr $end
$var wire 32 # pc_if [31:0] $end
$var wire 32 ) pc_id [31:0] $end
$var wire 32 * pc_exe [31:0] $end
$var wire 32 + pc_mem [31:0] $end
$var wire 32 , pc_wb [31:0] $end
$var integer 32 - nop_count $end
$var integer 32 . watch_count $end
$var integer 32 / i $end
$var integer 32 0 j $end
$var integer 32 1 correct $end
$var integer 32 2 ldst $end
$var integer 32 3 add $end
$var integer 32 4 sub $end
$var integer 32 5 slt $end
$var integer 32 6 addi $end
$var integer 32 7 slti $end
$var integer 32 8 beq $end
$var integer 32 9 bne $end
$var integer 32 : jump $end
$var integer 32 ; jal $end
$var integer 32 < jr $end
$var reg 32 = res [31:0] $end

$scope module UUT $end
$var wire 1 ! clk $end
$var wire 1 " rst_n $end
$var reg 32 > inst_addr [31:0] $end
$var wire 32 $ inst [31:0] $end
$var wire 32 % data_addr [31:0] $end
$var wire 32 & data_in [31:0] $end
$var wire 32 ' data_out [31:0] $end
$var wire 1 ( data_wr $end
$var wire 32 # pc_IF [31:0] $end
$var wire 32 ? pc_ID [31:0] $end
$var wire 32 @ pc_EXE [31:0] $end
$var wire 32 A pc_MEM [31:0] $end
$var wire 32 B pc_WB [31:0] $end
$var wire 32 C rd_dataA [31:0] $end
$var wire 32 D rd_dataB [31:0] $end
$var wire 32 E aluRes [31:0] $end
$var wire 1 F aluZ $end
$var wire 1 G aluNeg $end
$var reg 32 H if_id_inst_addr [31:0] $end
$var wire 32 $ if_id_inst [31:0] $end
$var reg 32 I id_exe_aluOpA [31:0] $end
$var reg 32 J id_exe_aluOpB [31:0] $end
$var reg 32 K id_exe_storeOp [31:0] $end
$var reg 5 L id_exe_wr_addr [4:0] $end
$var reg 32 M id_exe_inst [31:0] $end
$var reg 32 N id_exe_inst_addr [31:0] $end
$var reg 2 O id_exe_aluSel [1:0] $end
$var reg 1 P id_exe_data_wr $end
$var reg 1 Q id_exe_wr_en $end
$var reg 32 R exe_mem_aluRes [31:0] $end
$var reg 32 S exe_mem_storeOp [31:0] $end
$var reg 5 T exe_mem_wr_addr [4:0] $end
$var reg 32 U exe_mem_inst [31:0] $end
$var reg 32 V exe_mem_inst_addr [31:0] $end
$var reg 1 W exe_mem_wr_en $end
$var reg 1 X exe_mem_data_wr $end
$var reg 1 Y exe_mem_aluZ $end
$var reg 1 Z exe_mem_aluNeg $end
$var reg 5 [ mem_wb_wr_addr [4:0] $end
$var reg 32 \ mem_wb_wr_data [31:0] $end
$var reg 32 ] mem_wb_inst [31:0] $end
$var reg 32 ^ mem_wb_inst_addr [31:0] $end
$var reg 32 _ mem_wb_aluRes [31:0] $end
$var reg 1 ` mem_wb_wr_en $end
$var reg 1 a mem_wb_aluNeg $end
$var reg 1 b branch_taken $end
$var reg 1 c flush_jump $end
$var reg 32 d new_inst_addr [31:0] $end
$var reg 32 e inst_plus_four [31:0] $end

$scope module R1 $end
$var wire 1 ! clk $end
$var wire 1 " rst_n $end
$var wire 5 f rd_addrA [4:0] $end
$var wire 5 g rd_addrB [4:0] $end
$var wire 32 C rd_dataA [31:0] $end
$var wire 32 D rd_dataB [31:0] $end
$var wire 1 ` wr_en $end
$var wire 5 [ wr_addr [4:0] $end
$var wire 32 \ wr_data [31:0] $end
$var wire 32 h reg0 [31:0] $end
$var wire 32 i reg1 [31:0] $end
$var wire 32 j reg2 [31:0] $end
$var wire 32 k reg3 [31:0] $end
$var wire 32 l reg4 [31:0] $end
$var wire 32 m reg5 [31:0] $end
$var wire 32 n reg6 [31:0] $end
$var wire 32 o reg7 [31:0] $end
$var wire 32 p reg8 [31:0] $end
$var wire 32 q reg9 [31:0] $end
$var wire 32 r reg10 [31:0] $end
$var wire 32 s reg11 [31:0] $end
$var wire 32 t reg12 [31:0] $end
$var wire 32 u reg13 [31:0] $end
$var wire 32 v reg14 [31:0] $end
$var wire 32 w reg15 [31:0] $end
$var wire 32 x reg16 [31:0] $end
$var wire 32 y reg17 [31:0] $end
$var wire 32 z reg18 [31:0] $end
$var wire 32 { reg19 [31:0] $end
$var wire 32 | reg20 [31:0] $end
$var wire 32 } reg21 [31:0] $end
$var wire 32 ~ reg22 [31:0] $end
$var wire 32 "! reg23 [31:0] $end
$var wire 32 "" reg24 [31:0] $end
$var wire 32 "# reg25 [31:0] $end
$var wire 32 "$ reg26 [31:0] $end
$var wire 32 "% reg27 [31:0] $end
$var wire 32 "& reg28 [31:0] $end
$var wire 32 "' reg29 [31:0] $end
$var wire 32 "( reg30 [31:0] $end
$var wire 32 ") reg31 [31:0] $end
$upscope $end


$scope module A1 $end
$var wire 32 I opA [31:0] $end
$var wire 32 J opB [31:0] $end
$var wire 2 O sel [1:0] $end
$var wire 32 E res [31:0] $end
$var wire 1 F z $end
$var wire 1 G neg $end
$var wire 32 "* res_add [31:0] $end
$var wire 32 "+ res_sub [31:0] $end
$var reg 32 ", res_temp [31:0] $end
$upscope $end

$upscope $end


$scope module INSTMEM $end
$var wire 1 ! clk $end
$var wire 32 # inst_addr [31:0] $end
$var wire 32 $ inst [31:0] $end
$var reg 32 "- inst_temp [31:0] $end
$upscope $end


$scope module DATAMEM $end
$var wire 1 ! clk $end
$var wire 1 ( data_wr $end
$var wire 32 % data_addr [31:0] $end
$var wire 32 ' data_out [31:0] $end
$var wire 32 & data_in [31:0] $end
$var reg 32 ". data_in_temp [31:0] $end
$upscope $end

$upscope $end

$enddefinitions $end

#0
$dumpvars
0b
0!
0(
0Z
0Y
0X
0W
0c
0P
0Q
0a
0`
xG
0"
xF
b00000000000000000000000000000000 >
bxxxxxxxxxxxxxxxxxxxxxxxxxxxxxxxx 3
bxxxxxxxxxxxxxxxxxxxxxxxxxxxxxxxx 6
bxxxxxxxxxxxxxxxxxxxxxxxxxxxxxxxx 8
bxxxxxxxxxxxxxxxxxxxxxxxxxxxxxxxx 9
bxxxxxxxxxxxxxxxxxxxxxxxxxxxxxxxx 1
b00000000000000000000000000000000 %
bxxxxxxxxxxxxxxxxxxxxxxxxxxxxxxxx ".
bxxxxxxxxxxxxxxxxxxxxxxxxxxxxxxxx &
b00000000000000000000000000000000 '
b00000000000000000000000000000000 R
b00000000000000000000000000000000 U
b00000000000000000000000000000000 V
b00000000000000000000000000000000 S
b00000 T
bxxxxxxxxxxxxxxxxxxxxxxxxxxxxxxxx /
b00000000000000000000000000000000 I
b00000000000000000000000000000000 J
b00 O
b00000000000000000000000000000000 M
b00000000000000000000000000000000 N
b00000000000000000000000000000000 K
b00000 L
b00000000000000000000000000000000 H
b00000000000000000000000000000000 #
bxxxxxxxxxxxxxxxxxxxxxxxxxxxxxxxx e
bxxxxxxxxxxxxxxxxxxxxxxxxxxxxxxxx "-
bxxxxxxxxxxxxxxxxxxxxxxxxxxxxxxxx $
bxxxxxxxxxxxxxxxxxxxxxxxxxxxxxxxx 0
bxxxxxxxxxxxxxxxxxxxxxxxxxxxxxxxx ;
bxxxxxxxxxxxxxxxxxxxxxxxxxxxxxxxx <
bxxxxxxxxxxxxxxxxxxxxxxxxxxxxxxxx :
bxxxxxxxxxxxxxxxxxxxxxxxxxxxxxxxx 2
b00000000000000000000000000000000 _
b00000000000000000000000000000000 ]
b00000000000000000000000000000000 ^
b00000 [
b00000000000000000000000000000000 \
bxxxxxxxxxxxxxxxxxxxxxxxxxxxxxxxx d
b00000000000000000000000000000000 -
b00000000000000000000000000000000 @
b00000000000000000000000000000000 ?
b00000000000000000000000000000000 A
b00000000000000000000000000000000 B
bzzzzzzzzzzzzzzzzzzzzzzzzzzzzzzzz *
bzzzzzzzzzzzzzzzzzzzzzzzzzzzzzzzz )
bzzzzzzzzzzzzzzzzzzzzzzzzzzzzzzzz +
bzzzzzzzzzzzzzzzzzzzzzzzzzzzzzzzz ,
bxxxxxxxxxxxxxxxxxxxxxxxxxxxxxxxx C
bxxxxxxxxxxxxxxxxxxxxxxxxxxxxxxxx D
b00000000000000000000000000000000 h
b00000000000000000000000000000000 i
b00000000000000000000000000000000 r
b00000000000000000000000000000000 s
b00000000000000000000000000000000 t
b00000000000000000000000000000000 u
b00000000000000000000000000000000 v
b00000000000000000000000000000000 w
b00000000000000000000000000000000 x
b00000000000000000000000000000000 y
b00000000000000000000000000000000 z
b00000000000000000000000000000000 {
b00000000000000000000000000000000 j
b00000000000000000000000000000000 |
b00000000000000000000000000000000 }
b00000000000000000000000000000000 ~
b00000000000000000000000000000000 "!
b00000000000000000000000000000000 ""
b00000000000000000000000000000000 "#
b00000000000000000000000000000000 "$
b00000000000000000000000000000000 "%
b00000000000000000000000000000000 "&
b00000000000000000000000000000000 "'
b00000000000000000000000000000000 k
b00000000000000000000000000000000 "(
b00000000000000000000000000000000 ")
b00000000000000000000000000000000 l
b00000000000000000000000000000000 m
b00000000000000000000000000000000 n
b00000000000000000000000000000000 o
b00000000000000000000000000000000 p
b00000000000000000000000000000000 q
bxxxxxxxxxxxxxxxxxxxxxxxxxxxxxxxx =
b00000000000000000000000000000000 "*
b00000000000000000000000000000000 "+
b00000000000000000000000000000000 ",
bxxxxxxxxxxxxxxxxxxxxxxxxxxxxxxxx E
bxxxxxxxxxxxxxxxxxxxxxxxxxxxxxxxx 5
bxxxxxxxxxxxxxxxxxxxxxxxxxxxxxxxx 7
bxxxxxxxxxxxxxxxxxxxxxxxxxxxxxxxx 4
bxxxxx f
bxxxxx g
b00000000000000000000000000000000 .
$end
#5000
0G
1F
b00000000000000000000000000000000 E
#10000
1!
b10001100000000010000000000000000 "-
b10001100000000010000000000000000 ".
#14000
b10001100000000010000000000000000 $
b00000 f
b00001 g
b00000000000000000000000000000000 C
b00000000000000000000000000000000 D
b10001100000000010000000000000000 &
#20000
0!
#30000
1!
#40000
0!
#50000
1!
#60000
0!
#70000
1!
#80000
0!
#90000
1!
#100000
0!
#110000
1!
#120000
0!
#130000
1!
#140000
0!
#150000
1!
#160000
0!
#170000
1!
#180000
0!
#190000
1!
#200000
0!
#210000
1!
#216000
1"
#220000
0!
#230000
1!
b00000000000000000000000000000100 >
b00000000000000000000000000000100 #
b00001 L
1Q
b10001100000000010000000000000000 M
1Y
#236000
b00000000000000000000000000000001 .
#240000
0!
#250000
1!
b10001100000000100000000000000100 "-
b00000000000000000000000000001000 >
b00000000000000000000000000001000 #
b00000000000000000000000000000100 H
b00000000000000000000000000000100 ?
b00001 T
b10001100000000010000000000000000 U
1W
#254000
b10001100000000100000000000000100 $
b00010 g
#256000
b00000000000000000000000000000010 .
#260000
0!
#270000
1!
b10001100000000110000000000001000 "-
b00000000000000000000000000001100 >
b00000000000000000000000000001100 #
b00000000000000000000000000000100 J
b11111111111111111111111111111100 "+
b00000000000000000000000000000100 "*
b00010 L
b00000000000000000000000000001000 H
b00000000000000000000000000001000 ?
b10001100000000100000000000000100 M
b00000000000000000000000000000100 N
b00000000000000000000000000000100 @
b10001100000000010000000000000000 ]
b00001 [
1`
b00000000000000000000000000000100 ",
b10001100000000010000000000000000 \
#274000
b10001100000000110000000000001000 $
b00011 g
#275000
0F
b00000000000000000000000000000100 E
#276000
b00000000000000000000000000000011 .
#280000
0!
#290000
1!
b00000000000000000000000000000000 "-
b00000000000000000000000000010000 >
b00000000000000000000000000010000 #
b00000000000000000000000000001000 J
b11111111111111111111111111111000 "+
b00000000000000000000000000001000 "*
b00011 L
b00000000000000000000000000001100 H
b00000000000000000000000000001100 ?
b10001100000000110000000000001000 M
b00000000000000000000000000001000 N
b00000000000000000000000000001000 @
b00010 T
b10001100000000100000000000000100 U
b00000000000000000000000000000100 V
b00000000000000000000000000000100 A
b00000000000000000000000000000100 R
b00000000000000000000000000000100 %
0Y
b10001100000000010000000000000000 i
b00000000000000000000000000001000 ",
#294000
b00000000000000000000000000000000 $
b00000 g
#295000
b00000000000000000000000000001000 E
#296000
b00000000000000000000000000000001 -
b00000000000000000000000000000100 .
#300000
0!
#310000
1!
b10101100000000010000000000010000 "-
b10001100000000100000000000000100 ".
b00000000000000000000000000010100 >
b00000000000000000000000000010100 #
b00000000000000000000000000000000 J
b00000000000000000000000000000000 "+
b00000000000000000000000000000000 "*
b00000 L
0Q
b00000000000000000000000000010000 H
b00000000000000000000000000010000 ?
b00000000000000000000000000000000 M
b00000000000000000000000000001100 N
b00000000000000000000000000001100 @
b00011 T
b10001100000000110000000000001000 U
b00000000000000000000000000001000 V
b00000000000000000000000000001000 A
b00000000000000000000000000001000 R
b00000000000000000000000000001000 %
b10001100000000100000000000000100 ]
b00000000000000000000000000000100 ^
b00000000000000000000000000000100 B
b00010 [
b00000000000000000000000000000100 _
b00000000000000000000000000000000 ",
#314000
b10101100000000010000000000010000 $
b00001 g
b10001100000000010000000000000000 D
b10001100000000100000000000000100 &
b10001100000000100000000000000100 \
#315000
1F
b00000000000000000000000000000000 E
#316000
b00000000000000000000000000000000 -
b00000000000000000000000000000101 .
#320000
0!
#330000
1!
b00000000000000000000000000000000 "-
b10001100000000110000000000001000 ".
b00000000000000000000000000011000 >
b00000000000000000000000000011000 #
b00000000000000000000000000010000 J
b11111111111111111111111111110000 "+
b00000000000000000000000000010000 "*
b00001 L
1P
b00000000000000000000000000010100 H
b00000000000000000000000000010100 ?
b10001100000000010000000000000000 K
b10101100000000010000000000010000 M
b00000000000000000000000000010000 N
b00000000000000000000000000010000 @
b00000 T
b00000000000000000000000000000000 U
b00000000000000000000000000001100 V
b00000000000000000000000000001100 A
0W
b00000000000000000000000000000000 R
b00000000000000000000000000000000 %
1Y
b10001100000000110000000000001000 ]
b00000000000000000000000000001000 ^
b00000000000000000000000000001000 B
b00011 [
b00000000000000000000000000001000 _
b10001100000000100000000000000100 j
b00000000000000000000000000010000 ",
#334000
b00000000000000000000000000000000 $
b00000 g
b00000000000000000000000000000000 D
b10001100000000110000000000001000 &
b10001100000000110000000000001000 \
#335000
0F
b00000000000000000000000000010000 E
#336000
b00000000000000000000000000000001 -
b00000000000000000000000000000110 .
#340000
0!
#350000
1!
b10101100011000100000000000001000 "-
b10001100000000010000000000000000 ".
b00000000000000000000000000011100 >
b00000000000000000000000000011100 #
b00000000000000000000000000000000 J
b00000000000000000000000000000000 "+
b00000000000000000000000000000000 "*
b00000 L
0P
b00000000000000000000000000011000 H
b00000000000000000000000000011000 ?
b00000000000000000000000000000000 K
b00000000000000000000000000000000 M
b00000000000000000000000000010100 N
b00000000000000000000000000010100 @
b10001100000000010000000000000000 S
b10001100000000010000000000000000 '
b00001 T
b10101100000000010000000000010000 U
b00000000000000000000000000010000 V
b00000000000000000000000000010000 A
1X
1(
b00000000000000000000000000010000 R
b00000000000000000000000000010000 %
0Y
b00000000000000000000000000000000 ]
b00000000000000000000000000001100 ^
b00000000000000000000000000001100 B
b00000 [
0`
b00000000000000000000000000000000 _
b10001100000000110000000000001000 k
b00000000000000000000000000000000 ",
b00000000000000000000000000000000 \
#354000
b10101100011000100000000000001000 $
b00011 f
b00010 g
b10001100000000110000000000001000 C
b10001100000000100000000000000100 D
b10001100000000010000000000000000 &
#355000
1F
b00000000000000000000000000000000 E
#356000
b00000000000000000000000000000000 -
b00000000000000000000000000000111 .
#360000
0!
#370000
1!
b10001100000001000000000000010100 "-
b10101100000000010000000000010000 ".
b00000000000000000000000000100000 >
b00000000000000000000000000100000 #
b00000000000000000000000000001000 J
b11111111111111111111111111111000 "+
b00000000000000000000000000001000 "*
b00010 L
1P
b00000000000000000000000000011100 H
b00000000000000000000000000011100 ?
b10001100000000110000000000001000 I
b10001100000000110000000000000000 "+
b10001100000000110000000000010000 "*
b10001100000000100000000000000100 K
b10101100011000100000000000001000 M
b00000000000000000000000000011000 N
b00000000000000000000000000011000 @
b00000000000000000000000000000000 S
b00000000000000000000000000000000 '
b00000 T
b00000000000000000000000000000000 U
b00000000000000000000000000010100 V
b00000000000000000000000000010100 A
0X
0(
b00000000000000000000000000000000 R
b00000000000000000000000000000000 %
1Y
b10101100000000010000000000010000 ]
b00000000000000000000000000010000 ^
b00000000000000000000000000010000 B
b00001 [
b00000000000000000000000000010000 _
b10001100000000110000000000010000 ",
#374000
b10001100000001000000000000010100 $
b00000 f
b00100 g
b00000000000000000000000000000000 C
b00000000000000000000000000000000 D
b10101100000000010000000000010000 &
#375000
1G
0F
b10001100000000110000000000010000 E
#376000
b00000000000000000000000000001000 .
#380000
0!
#390000
1!
b00000000001000010010100000100000 "-
b10001100000000010000000000000000 ".
b00000000000000000000000000100100 >
b00000000000000000000000000100100 #
b00000000000000000000000000010100 J
b10001100000000101111111111110100 "+
b10001100000000110000000000011100 "*
b00100 L
0P
1Q
b00000000000000000000000000100000 H
b00000000000000000000000000100000 ?
b00000000000000000000000000000000 I
b11111111111111111111111111101100 "+
b00000000000000000000000000010100 "*
b00000000000000000000000000000000 K
b10001100000001000000000000010100 M
b00000000000000000000000000011100 N
b00000000000000000000000000011100 @
b10001100000000100000000000000100 S
b10001100000000100000000000000100 '
b00010 T
b10101100011000100000000000001000 U
b00000000000000000000000000011000 V
b00000000000000000000000000011000 A
1X
1(
b10001100000000110000000000010000 R
b10001100000000110000000000010000 %
1Z
0Y
b00000000000000000000000000000000 ]
b00000000000000000000000000010100 ^
b00000000000000000000000000010100 B
b00000 [
b00000000000000000000000000000000 _
b00000000000000000000000000010100 ",
#394000
b00000000001000010010100000100000 $
b00001 f
b00001 g
b10001100000000010000000000000000 C
b10001100000000010000000000000000 D
b10001100000000010000000000000000 &
#395000
0G
b00000000000000000000000000010100 E
#396000
b00000000000000000000000000001001 .
#400000
0!
#410000
1!
b00000000010000100011000000100000 "-
bxxxxxxxxxxxxxxxxxxxxxxxxxxxxxxxx ".
b00000000000000000000000000101000 >
b00000000000000000000000000101000 #
b10001100000000010000000000000000 J
b01110011111111110000000000000000 "+
b10001100000000010000000000000000 "*
b00101 L
b00000000000000000000000000100100 H
b00000000000000000000000000100100 ?
b10001100000000010000000000000000 I
b00000000000000000000000000000000 "+
b00011000000000100000000000000000 "*
b10001100000000010000000000000000 K
b00000000001000010010100000100000 M
b00000000000000000000000000100000 N
b00000000000000000000000000100000 @
b00000000000000000000000000000000 S
b00000000000000000000000000000000 '
b00100 T
b10001100000001000000000000010100 U
b00000000000000000000000000011100 V
b00000000000000000000000000011100 A
1W
0X
0(
b00000000000000000000000000010100 R
b00000000000000000000000000010100 %
0Z
b10101100011000100000000000001000 ]
b00000000000000000000000000011000 ^
b00000000000000000000000000011000 B
b00010 [
b10001100000000110000000000010000 _
1a
b00011000000000100000000000000000 ",
#414000
b00000000010000100011000000100000 $
b00010 f
b00010 g
b10001100000000100000000000000100 C
b10001100000000100000000000000100 D
bxxxxxxxxxxxxxxxxxxxxxxxxxxxxxxxx &
#415000
b00011000000000100000000000000000 E
#416000
b00000000000000000000000000001010 .
#420000
0!
#430000
1!
b00000000001000100011100000100000 "-
b00000000000000000000000000000000 ".
b00000000000000000000000000101100 >
b00000000000000000000000000101100 #
b10001100000000100000000000000100 J
b11111111111111101111111111111100 "+
b00011000000000110000000000000100 "*
b00110 L
b00000000000000000000000000101000 H
b00000000000000000000000000101000 ?
b10001100000000100000000000000100 I
b00000000000000000000000000000000 "+
b00011000000001000000000000001000 "*
b10001100000000100000000000000100 K
b00000000010000100011000000100000 M
b00000000000000000000000000100100 N
b00000000000000000000000000100100 @
b10001100000000010000000000000000 S
b10001100000000010000000000000000 '
b00101 T
b00000000001000010010100000100000 U
b00000000000000000000000000100000 V
b00000000000000000000000000100000 A
b00011000000000100000000000000000 R
b00011000000000100000000000000000 %
b10001100000001000000000000010100 ]
b00000000000000000000000000011100 ^
b00000000000000000000000000011100 B
b00100 [
1`
b00000000000000000000000000010100 _
0a
b00011000000001000000000000001000 ",
bxxxxxxxxxxxxxxxxxxxxxxxxxxxxxxxx \
#434000
b00000000001000100011100000100000 $
b00001 f
b10001100000000010000000000000000 C
b00000000000000000000000000000000 &
b00000000000000000000000000000000 \
#435000
b00011000000001000000000000001000 E
#436000
b00000000000000000000000000001011 .
#440000
0!
#450000
1!
b00000000010000010100000000100000 "-
bxxxxxxxxxxxxxxxxxxxxxxxxxxxxxxxx ".
b00000000000000000000000000110000 >
b00000000000000000000000000110000 #
b00111 L
b00000000000000000000000000101100 H
b00000000000000000000000000101100 ?
b10001100000000010000000000000000 I
b11111111111111101111111111111100 "+
b00011000000000110000000000000100 "*
b00000000001000100011100000100000 M
b00000000000000000000000000101000 N
b00000000000000000000000000101000 @
b10001100000000100000000000000100 S
b10001100000000100000000000000100 '
b00110 T
b00000000010000100011000000100000 U
b00000000000000000000000000100100 V
b00000000000000000000000000100100 A
b00011000000001000000000000001000 R
b00011000000001000000000000001000 %
b00000000001000010010100000100000 ]
b00000000000000000000000000100000 ^
b00000000000000000000000000100000 B
b00101 [
b00011000000000100000000000000000 _
b00011000000000110000000000000100 ",
b00011000000000100000000000000000 \
#454000
b00000000010000010100000000100000 $
b00010 f
b00001 g
b10001100000000100000000000000100 C
b10001100000000010000000000000000 D
bxxxxxxxxxxxxxxxxxxxxxxxxxxxxxxxx &
#455000
b00011000000000110000000000000100 E
#456000
b00000000000000000000000000001100 .
#460000
0!
#470000
1!
b10101100100000111111111111111000 "-
b00000000000000000000000000110100 >
b00000000000000000000000000110100 #
b10001100000000010000000000000000 J
b00000000000000000000000000000000 "+
b00011000000000100000000000000000 "*
b01000 L
b00000000000000000000000000110000 H
b00000000000000000000000000110000 ?
b10001100000000100000000000000100 I
b00000000000000010000000000000100 "+
b00011000000000110000000000000100 "*
b10001100000000010000000000000000 K
b00000000010000010100000000100000 M
b00000000000000000000000000101100 N
b00000000000000000000000000101100 @
b00111 T
b00000000001000100011100000100000 U
b00000000000000000000000000101000 V
b00000000000000000000000000101000 A
b00011000000000110000000000000100 R
b00011000000000110000000000000100 %
b00000000010000100011000000100000 ]
b00000000000000000000000000100100 ^
b00000000000000000000000000100100 B
b00110 [
b00011000000001000000000000001000 _
b00011000000000100000000000000000 m
b00011000000001000000000000001000 \
#474000
b10101100100000111111111111111000 $
b00100 f
b00011 g
b00000000000000000000000000000000 C
b10001100000000110000000000001000 D
#476000
b00000000000000000000000000001101 .
#480000
0!
#490000
1!
b10101100000001010000000000011100 "-
b00000000000000000000000000111000 >
b00000000000000000000000000111000 #
b11111111111111111111111111111000 J
b10001100000000100000000000001100 "+
b10001100000000011111111111111100 "*
b00011 L
1P
0Q
b00000000000000000000000000110100 H
b00000000000000000000000000110100 ?
b00000000000000000000000000000000 I
b00000000000000000000000000001000 "+
b11111111111111111111111111111000 "*
b10001100000000110000000000001000 K
b10101100100000111111111111111000 M
b00000000000000000000000000110000 N
b00000000000000000000000000110000 @
b10001100000000010000000000000000 S
b10001100000000010000000000000000 '
b01000 T
b00000000010000010100000000100000 U
b00000000000000000000000000101100 V
b00000000000000000000000000101100 A
b00000000001000100011100000100000 ]
b00000000000000000000000000101000 ^
b00000000000000000000000000101000 B
b00111 [
b00011000000000110000000000000100 _
b00011000000001000000000000001000 n
b11111111111111111111111111111000 ",
b00011000000000110000000000000100 \
#494000
b10101100000001010000000000011100 $
b00000 f
b00101 g
b00011000000000100000000000000000 D
#495000
1G
b11111111111111111111111111111000 E
#496000
b00000000000000000000000000001110 .
#500000
0!
#510000
1!
b10101100000001100000000000100000 "-
b00000000000000000000000000111100 >
b00000000000000000000000000111100 #
b00000000000000000000000000011100 J
b11111111111111111111111111100100 "+
b00000000000000000000000000011100 "*
b00101 L
b00000000000000000000000000111000 H
b00000000000000000000000000111000 ?
b00011000000000100000000000000000 K
b10101100000001010000000000011100 M
b00000000000000000000000000110100 N
b00000000000000000000000000110100 @
b10001100000000110000000000001000 S
b10001100000000110000000000001000 '
b00011 T
b10101100100000111111111111111000 U
b00000000000000000000000000110000 V
b00000000000000000000000000110000 A
0W
1X
1(
b11111111111111111111111111111000 R
b11111111111111111111111111111000 %
1Z
b00000000010000010100000000100000 ]
b00000000000000000000000000101100 ^
b00000000000000000000000000101100 B
b01000 [
b00011000000000110000000000000100 o
b00000000000000000000000000011100 ",
#514000
b10101100000001100000000000100000 $
b00110 g
b00011000000001000000000000001000 D
#515000
0G
b00000000000000000000000000011100 E
#516000
b00000000000000000000000000001111 .
#520000
0!
#530000
1!
b10101100000001110000000000100100 "-
b00000000000000000000000001000000 >
b00000000000000000000000001000000 #
b00000000000000000000000000100000 J
b11111111111111111111111111100000 "+
b00000000000000000000000000100000 "*
b00110 L
b00000000000000000000000000111100 H
b00000000000000000000000000111100 ?
b00011000000001000000000000001000 K
b10101100000001100000000000100000 M
b00000000000000000000000000111000 N
b00000000000000000000000000111000 @
b00011000000000100000000000000000 S
b00011000000000100000000000000000 '
b00101 T
b10101100000001010000000000011100 U
b00000000000000000000000000110100 V
b00000000000000000000000000110100 A
b00000000000000000000000000011100 R
b00000000000000000000000000011100 %
0Z
b10101100100000111111111111111000 ]
b00000000000000000000000000110000 ^
b00000000000000000000000000110000 B
b00011 [
0`
b11111111111111111111111111111000 _
1a
b00011000000000110000000000000100 p
b00000000000000000000000000100000 ",
#534000
b10101100000001110000000000100100 $
b00111 g
b00011000000000110000000000000100 D
#535000
b00000000000000000000000000100000 E
#536000
b00000000000000000000000000010000 .
#540000
0!
#550000
1!
b10101100000010000000000000101000 "-
b10001100000001000000000000010100 ".
b00000000000000000000000001000100 >
b00000000000000000000000001000100 #
b00000000000000000000000000100100 J
b11111111111111111111111111011100 "+
b00000000000000000000000000100100 "*
b00111 L
b00000000000000000000000001000000 H
b00000000000000000000000001000000 ?
b00011000000000110000000000000100 K
b10101100000001110000000000100100 M
b00000000000000000000000000111100 N
b00000000000000000000000000111100 @
b00011000000001000000000000001000 S
b00011000000001000000000000001000 '
b00110 T
b10101100000001100000000000100000 U
b00000000000000000000000000111000 V
b00000000000000000000000000111000 A
b00000000000000000000000000100000 R
b00000000000000000000000000100000 %
b10101100000001010000000000011100 ]
b00000000000000000000000000110100 ^
b00000000000000000000000000110100 B
b00101 [
b00000000000000000000000000011100 _
0a
b00000000000000000000000000100100 ",
#554000
b10101100000010000000000000101000 $
b01000 g
b10001100000001000000000000010100 &
#555000
b00000000000000000000000000100100 E
#556000
b00000000000000000000000000010001 .
#560000
0!
#570000
1!
b00000000001000010010100000100010 "-
b00000000001000010010100000100000 ".
b00000000000000000000000001001000 >
b00000000000000000000000001001000 #
b00000000000000000000000000101000 J
b11111111111111111111111111011000 "+
b00000000000000000000000000101000 "*
b01000 L
b00000000000000000000000001000100 H
b00000000000000000000000001000100 ?
b10101100000010000000000000101000 M
b00000000000000000000000001000000 N
b00000000000000000000000001000000 @
b00011000000000110000000000000100 S
b00011000000000110000000000000100 '
b00111 T
b10101100000001110000000000100100 U
b00000000000000000000000000111100 V
b00000000000000000000000000111100 A
b00000000000000000000000000100100 R
b00000000000000000000000000100100 %
b10101100000001100000000000100000 ]
b00000000000000000000000000111000 ^
b00000000000000000000000000111000 B
b00110 [
b00000000000000000000000000100000 _
b00000000000000000000000000101000 ",
#574000
b00000000001000010010100000100010 $
b00001 f
b00001 g
b10001100000000010000000000000000 C
b10001100000000010000000000000000 D
b00000000001000010010100000100000 &
#575000
b00000000000000000000000000101000 E
#576000
b00000000000000000000000000010010 .
#580000
0!
#590000
1!
b00000000010000100011000000100010 "-
b00000000010000100011000000100000 ".
b00000000000000000000000001001100 >
b00000000000000000000000001001100 #
b10001100000000010000000000000000 J
b01110011111111110000000000000000 "+
b10001100000000010000000000000000 "*
b00101 L
b01 O
0P
1Q
b00000000000000000000000001001000 H
b00000000000000000000000001001000 ?
b10001100000000010000000000000000 I
b00000000000000000000000000000000 "+
b00011000000000100000000000000000 "*
b10001100000000010000000000000000 K
b00000000001000010010100000100010 M
b00000000000000000000000001000100 N
b00000000000000000000000001000100 @
b01000 T
b10101100000010000000000000101000 U
b00000000000000000000000001000000 V
b00000000000000000000000001000000 A
b00000000000000000000000000101000 R
b00000000000000000000000000101000 %
b10101100000001110000000000100100 ]
b00000000000000000000000000111100 ^
b00000000000000000000000000111100 B
b00111 [
b00000000000000000000000000100100 _
b00000000000000000000000000000000 ",
#594000
b00000000010000100011000000100010 $
b00010 f
b00010 g
b10001100000000100000000000000100 C
b10001100000000100000000000000100 D
b00000000010000100011000000100000 &
#595000
1F
b00000000000000000000000000000000 E
#596000
b00000000000000000000000000010011 .
#600000
0!
#610000
1!
b00000000001000100011100000100010 "-
b00000000001000100011100000100000 ".
b00000000000000000000000001010000 >
b00000000000000000000000001010000 #
b10001100000000100000000000000100 J
b11111111111111101111111111111100 "+
b00011000000000110000000000000100 "*
b00110 L
b00000000000000000000000001001100 H
b00000000000000000000000001001100 ?
b10001100000000100000000000000100 I
b00000000000000000000000000000000 "+
b00011000000001000000000000001000 "*
b10001100000000100000000000000100 K
b00000000010000100011000000100010 M
b00000000000000000000000001001000 N
b00000000000000000000000001001000 @
b10001100000000010000000000000000 S
b10001100000000010000000000000000 '
b00101 T
b00000000001000010010100000100010 U
b00000000000000000000000001000100 V
b00000000000000000000000001000100 A
1W
0X
0(
b00000000000000000000000000000000 R
b00000000000000000000000000000000 %
1Y
b10101100000010000000000000101000 ]
b00000000000000000000000001000000 ^
b00000000000000000000000001000000 B
b01000 [
b00000000000000000000000000101000 _
#614000
b00000000001000100011100000100010 $
b00001 f
b10001100000000010000000000000000 C
b00000000001000100011100000100000 &
