lab4/sim2/tb_pipelined_mips.vcd
$date
	Tue Apr 18 14:38:23 2017
$end
$version
	Icarus Verilog
$end
$timescale
	1ps
$end
$scope module tb_pipelined_mips $end
$var wire 32 ! pc_if [31:0] $end
$var wire 32 " inst_addr [31:0] $end
$var wire 32 # inst [31:0] $end
$var wire 1 $ data_wr $end
$var wire 32 % data_out [31:0] $end
$var wire 32 & data_in [31:0] $end
$var wire 32 ' data_addr [31:0] $end
$var reg 1 ( clk $end
$var reg 32 ) res [31:0] $end
$var reg 1 * rst_n $end
$var integer 32 + add [31:0] $end
$var integer 32 , addi [31:0] $end
$var integer 32 - beq [31:0] $end
$var integer 32 . bne [31:0] $end
$var integer 32 / correct [31:0] $end
$var integer 32 0 i [31:0] $end
$var integer 32 1 jal [31:0] $end
$var integer 32 2 jr [31:0] $end
$var integer 32 3 jump [31:0] $end
$var integer 32 4 ldst [31:0] $end
$var integer 32 5 nop_count [31:0] $end
$var integer 32 6 slt [31:0] $end
$var integer 32 7 slti [31:0] $end
$var integer 32 8 sub [31:0] $end
$var integer 32 9 watch_count [31:0] $end
$scope module DATAMEM $end
$var wire 1 ( clk $end
$var wire 32 : data_in [31:0] $end
$var wire 1 $ data_wr $end
$var wire 32 ; data_out [31:0] $end
$var wire 32 < data_addr [31:0] $end
$var reg 32 = data_in_temp [31:0] $end
$upscope $end
$scope module INSTMEM $end
$var wire 1 ( clk $end
$var wire 32 > inst [31:0] $end
$var wire 32 ? inst_addr [31:0] $end
$var reg 32 @ inst_temp [31:0] $end
$upscope $end
$scope module UUT $end
$var wire 1 ( clk $end
$var wire 32 A data_addr [31:0] $end
$var wire 32 B data_in [31:0] $end
$var wire 32 C data_out [31:0] $end
$var wire 1 $ data_wr $end
$var wire 32 D if_id_inst [31:0] $end
$var wire 32 E inst [31:0] $end
$var wire 32 F pc_EXE [31:0] $end
$var wire 32 G pc_ID [31:0] $end
$var wire 32 H pc_IF [31:0] $end
$var wire 32 I pc_MEM [31:0] $end
$var wire 32 J pc_WB [31:0] $end
$var wire 1 * rst_n $end
$var wire 32 K rd_dataB [31:0] $end
$var wire 32 L rd_dataA [31:0] $end
$var wire 1 M aluZ $end
$var wire 32 N aluRes [31:0] $end
$var wire 1 O aluNeg $end
$var reg 1 P branch_taken $end
$var reg 1 Q exe_mem_aluNeg $end
$var reg 32 R exe_mem_aluRes [31:0] $end
$var reg 1 S exe_mem_aluZ $end
$var reg 1 T exe_mem_data_wr $end
$var reg 32 U exe_mem_inst [31:0] $end
$var reg 32 V exe_mem_inst_addr [31:0] $end
$var reg 32 W exe_mem_storeOp [31:0] $end
$var reg 5 X exe_mem_wr_addr [4:0] $end
$var reg 1 Y exe_mem_wr_en $end
$var reg 1 Z flush_jump $end
$var reg 32 [ id_exe_aluOpA [31:0] $end
$var reg 32 \ id_exe_aluOpB [31:0] $end
$var reg 2 ] id_exe_aluSel [1:0] $end
$var reg 1 ^ id_exe_data_wr $end
$var reg 32 _ id_exe_inst [31:0] $end
$var reg 32 ` id_exe_inst_addr [31:0] $end
$var reg 32 a id_exe_storeOp [31:0] $end
$var reg 5 b id_exe_wr_addr [4:0] $end
$var reg 1 c id_exe_wr_en $end
$var reg 32 d if_id_inst_addr [31:0] $end
$var reg 32 e inst_addr [31:0] $end
$var reg 1 f mem_wb_aluNeg $end
$var reg 32 g mem_wb_aluRes [31:0] $end
$var reg 32 h mem_wb_inst [31:0] $end
$var reg 32 i mem_wb_inst_addr [31:0] $end
$var reg 5 j mem_wb_wr_addr [4:0] $end
$var reg 32 k mem_wb_wr_data [31:0] $end
$var reg 1 l mem_wb_wr_en $end
$scope module A1 $end
$var wire 32 m opA [31:0] $end
$var wire 32 n opB [31:0] $end
$var wire 32 o res [31:0] $end
$var wire 2 p sel [1:0] $end
$var wire 1 M z $end
$var wire 32 q res_sub [31:0] $end
$var wire 32 r res_add [31:0] $end
$var wire 1 O neg $end
$var reg 32 s res_temp [31:0] $end
$upscope $end
$scope module R1 $end
$var wire 1 ( clk $end
$var wire 5 t rd_addrA [4:0] $end
$var wire 5 u rd_addrB [4:0] $end
$var wire 32 v rd_dataA [31:0] $end
$var wire 32 w rd_dataB [31:0] $end
$var wire 32 x reg0 [31:0] $end
$var wire 32 y reg1 [31:0] $end
$var wire 32 z reg10 [31:0] $end
$var wire 32 { reg11 [31:0] $end
$var wire 32 | reg12 [31:0] $end
$var wire 32 } reg13 [31:0] $end
$var wire 32 ~ reg14 [31:0] $end
$var wire 32 !" reg15 [31:0] $end
$var wire 32 "" reg16 [31:0] $end
$var wire 32 #" reg17 [31:0] $end
$var wire 32 $" reg18 [31:0] $end
$var wire 32 %" reg19 [31:0] $end
$var wire 32 &" reg2 [31:0] $end
$var wire 32 '" reg20 [31:0] $end
$var wire 32 (" reg21 [31:0] $end
$var wire 32 )" reg22 [31:0] $end
$var wire 32 *" reg23 [31:0] $end
$var wire 32 +" reg24 [31:0] $end
$var wire 32 ," reg25 [31:0] $end
$var wire 32 -" reg26 [31:0] $end
$var wire 32 ." reg27 [31:0] $end
$var wire 32 /" reg28 [31:0] $end
$var wire 32 0" reg29 [31:0] $end
$var wire 32 1" reg3 [31:0] $end
$var wire 32 2" reg30 [31:0] $end
$var wire 32 3" reg31 [31:0] $end
$var wire 32 4" reg4 [31:0] $end
$var wire 32 5" reg5 [31:0] $end
$var wire 32 6" reg6 [31:0] $end
$var wire 32 7" reg7 [31:0] $end
$var wire 32 8" reg8 [31:0] $end
$var wire 32 9" reg9 [31:0] $end
$var wire 1 * rst_n $end
$var wire 5 :" wr_addr [4:0] $end
$var wire 32 ;" wr_data [31:0] $end
$var wire 1 l wr_en $end
$upscope $end
$upscope $end
$upscope $end
$enddefinitions $end
#0
$dumpvars
b0 ;"
b0 :"
b0 9"
b0 8"
b0 7"
b0 6"
b0 5"
b0 4"
b0 3"
b0 2"
b0 1"
b0 0"
b0 /"
b0 ."
b0 -"
b0 ,"
b0 +"
b0 *"
b0 )"
b0 ("
b0 '"
b0 &"
b0 %"
b0 $"
b0 #"
b0 ""
b0 !"
b0 ~
b0 }
b0 |
b0 {
b0 z
b0 y
b0 x
bx w
bx v
bx u
bx t
b0 s
b0 r
b0 q
b0 p
bx o
b0 n
b0 m
0l
b0 k
b0 j
b0 i
b0 h
b0 g
0f
b0 e
b0 d
0c
b0 b
b0 a
b0 `
b0 _
0^
b0 ]
b0 \
b0 [
0Z
0Y
b0 X
b0 W
b0 V
b0 U
0T
0S
b0 R
0Q
0P
xO
bx N
xM
bx L
bx K
b0 J
b0 I
b0 H
b0 G
b0 F
bx E
bx D
b0 C
bx B
b0 A
bx @
b0 ?
bx >
bx =
b0 <
b0 ;
bx :
b0 9
bx 8
bx 7
bx 6
b0 5
bx 4
bx 3
bx 2
bx 1
bx 0
bx /
bx .
bx -
bx ,
bx +
0*
bx )
0(
b0 '
bx &
b0 %
0$
bx #
b0 "
b0 !
$end
#5000
b0 N
b0 o
0O
1M
#10000
b10001100000000010000000000000000 @
b100011010101111001101 =
1(
#14000
b0 L
b0 v
b0 t
b0 K
b0 w
b1 u
b10001100000000010000000000000000 D
b10001100000000010000000000000000 #
b10001100000000010000000000000000 >
b10001100000000010000000000000000 E
b100011010101111001101 &
b100011010101111001101 :
b100011010101111001101 B
#20000
0(
#30000
1(
#40000
0(
#50000
1(
#60000
0(
#70000
1(
#80000
0(
#90000
1(
#100000
0(
#110000
1(
#120000
0(
#130000
1(
#140000
0(
#150000
1(
#160000
0(
#170000
1(
#180000
0(
#190000
1(
#200000
0(
#210000
1(
#216000
1*
#220000
0(
#230000
b100 H
b100 !
b100 "
b100 ?
b100 e
b10001100000000010000000000000000 _
b1 b
1c
1S
1(
#236000
b1 9
#240000
0(
#250000
1Y
b10001100000000010000000000000000 U
b1 X
b100 G
b100 d
b1000 H
b1000 !
b1000 "
b1000 ?
b1000 e
b10001100000000100000000000000100 @
1(
#254000
b10 u
b10001100000000100000000000000100 D
b10001100000000100000000000000100 #
b10001100000000100000000000000100 >
b10001100000000100000000000000100 E
#256000
b10 9
#260000
0(
#270000
b100 s
b100011010101111001101 k
b100011010101111001101 ;"
b1100 H
b1100 !
b1100 "
b1100 ?
b1100 e
b1000 G
b1000 d
b100 r
b11111111111111111111111111111100 q
b100 \
b100 n
b10001100000000100000000000000100 _
b100 F
b100 `
b10 b
b10001100000000010000000000000000 h
b1 j
b1 :"
1l
b10001100000000110000000000001000 @
1(
#274000
b11 u
b10001100000000110000000000001000 D
b10001100000000110000000000001000 #
b10001100000000110000000000001000 >
b10001100000000110000000000001000 E
#275000
0M
b100 N
b100 o
#276000
b11 9
#280000
0(
#290000
b1000 s
0S
b100 '
b100 <
b100 A
b100 R
b100 I
b100 V
b10001100000000100000000000000100 U
b10 X
b11 b
b1000 F
b1000 `
b10001100000000110000000000001000 _
b1000 r
b11111111111111111111111111111000 q
b1000 \
b1000 n
b1100 G
b1100 d
b10000 H
b10000 !
b10000 "
b10000 ?
b10000 e
b100011010101111001101 y
b0 @
1(
#294000
b0 u
b0 D
b0 #
b0 >
b0 E
#295000
b1000 N
b1000 o
#296000
b100 9
b1 5
#300000
0(
#310000
b0 s
b10100 H
b10100 !
b10100 "
b10100 ?
b10100 e
b10000 G
b10000 d
b0 r
b0 q
b0 \
b0 n
b0 _
b1100 F
b1100 `
b0 b
0c
b11 X
b10001100000000110000000000001000 U
b1000 I
b1000 V
b1000 '
b1000 <
b1000 A
b1000 R
b10001100000000100000000000000100 h
b100 J
b100 i
b10 j
b10 :"
b100 g
b11111111111111110000000100000001 =
b10101100000000010000000000010000 @
1(
#314000
b11111111111111110000000100000001 k
b11111111111111110000000100000001 ;"
b100011010101111001101 K
b100011010101111001101 w
b1 u
b11111111111111110000000100000001 &
b11111111111111110000000100000001 :
b11111111111111110000000100000001 B
b10101100000000010000000000010000 D
b10101100000000010000000000010000 #
b10101100000000010000000000010000 >
b10101100000000010000000000010000 E
#315000
1M
b0 N
b0 o
#316000
b101 9
b0 5
#320000
0(
#330000
b10000 s
b1000 g
b11 j
b11 :"
b1000 J
b1000 i
b10001100000000110000000000001000 h
1S
b0 '
b0 <
b0 A
b0 R
0Y
b1100 I
b1100 V
b0 U
b0 X
1^
b1 b
b10000 F
b10000 `
b10101100000000010000000000010000 _
b100011010101111001101 a
b10000 r
b11111111111111111111111111110000 q
b10000 \
b10000 n
b10100 G
b10100 d
b11000 H
b11000 !
b11000 "
b11000 ?
b11000 e
b11111111111111110000000100000001 &"
b0 @
b100 =
1(
#334000
b100 k
b100 ;"
b0 K
b0 w
b0 u
b0 D
b0 #
b0 >
b0 E
b100 &
b100 :
b100 B
#335000
0M
b10000 N
b10000 o
#336000
b110 9
b1 5
#340000
0(
#350000
b0 s
b0 k
b0 ;"
b100 1"
b11100 H
b11100 !
b11100 "
b11100 ?
b11100 e
b11000 G
b11000 d
b0 r
b0 q
b0 \
b0 n
b0 a
b0 _
b10100 F
b10100 `
b0 b
0^
b100011010101111001101 %
b100011010101111001101 ;
b100011010101111001101 C
b100011010101111001101 W
b1 X
b10101100000000010000000000010000 U
b10000 I
b10000 V
1$
1T
b10000 '
b10000 <
b10000 A
b10000 R
0S
b0 h
b1100 J
b1100 i
b0 j
b0 :"
0l
b0 g
b100011010101111001101 =
b10101100011000100000000000001000 @
1(
#354000
b100 L
b100 v
b11 t
b11111111111111110000000100000001 K
b11111111111111110000000100000001 w
b10 u
b100011010101111001101 &
b100011010101111001101 :
b100011010101111001101 B
b10101100011000100000000000001000 D
b10101100011000100000000000001000 #
b10101100011000100000000000001000 >
b10101100011000100000000000001000 E
#355000
1M
b0 N
b0 o
#356000
b111 9
b0 5
#360000
0(
#370000
b1100 s
b10000 g
b1 j
b1 :"
b10000 J
b10000 i
b10101100000000010000000000010000 h
1S
b0 '
b0 <
b0 A
b0 R
0$
0T
b10100 I
b10100 V
b0 U
b0 X
b0 %
b0 ;
b0 C
b0 W
1^
b10 b
b11000 F
b11000 `
b10101100011000100000000000001000 _
b11111111111111110000000100000001 a
b1000 \
b1000 n
b1100 r
b11111111111111111111111111111100 q
b100 [
b100 m
b11100 G
b11100 d
b100000 H
b100000 !
b100000 "
b100000 ?
b100000 e
b10001100000001000000000000010100 @
b0 =
1(
#374000
b0 L
b0 v
b0 t
b0 K
b0 w
b100 u
b10001100000001000000000000010100 D
b10001100000001000000000000010100 #
b10001100000001000000000000010100 >
b10001100000001000000000000010100 E
b0 &
b0 :
b0 B
#375000
0M
b1100 N
b1100 o
#376000
b1000 9
#380000
0(
#390000
b10100 s
b100100 H
b100100 !
b100100 "
b100100 ?
b100100 e
b100000 G
b100000 d
b0 [
b0 m
b10100 r
b11111111111111111111111111101100 q
b10100 \
b10100 n
b0 a
b10001100000001000000000000010100 _
b11100 F
b11100 `
b100 b
0^
1c
b11111111111111110000000100000001 %
b11111111111111110000000100000001 ;
b11111111111111110000000100000001 C
b11111111111111110000000100000001 W
b10 X
b10101100011000100000000000001000 U
b11000 I
b11000 V
1$
1T
b1100 '
b1100 <
b1100 A
b1100 R
0S
b0 h
b10100 J
b10100 i
b0 j
b0 :"
b0 g
b100011010101111001101 =
b1000010010100000100000 @
1(
#394000
b100011010101111001101 L
b100011010101111001101 v
b1 t
b100011010101111001101 K
b100011010101111001101 w
b1 u
b100011010101111001101 &
b100011010101111001101 :
b100011010101111001101 B
b1000010010100000100000 D
b1000010010100000100000 #
b1000010010100000100000 >
b1000010010100000100000 E
#395000
b10100 N
b10100 o
#396000
b1001 9
#400000
0(
#410000
b1000110101011110011010 s
b1100 g
b10 j
b10 :"
b11000 J
b11000 i
b10101100011000100000000000001000 h
b10100 '
b10100 <
b10100 A
b10100 R
0$
0T
1Y
b11100 I
b11100 V
b10001100000001000000000000010100 U
b100 X
b0 %
b0 ;
b0 C
b0 W
b101 b
b100000 F
b100000 `
b1000010010100000100000 _
b100011010101111001101 a
b100011010101111001101 \
b100011010101111001101 n
b1000110101011110011010 r
b0 q
b100011010101111001101 [
b100011010101111001101 m
b100100 G
b100100 d
b101000 H
b101000 !
b101000 "
b101000 ?
b101000 e
b10000100011000000100000 @
b11111111111111111111111111111000 =
1(
#414000
b11111111111111110000000100000001 L
b11111111111111110000000100000001 v
b10 t
b11111111111111110000000100000001 K
b11111111111111110000000100000001 w
b10 u
b10000100011000000100000 D
b10000100011000000100000 #
b10000100011000000100000 >
b10000100011000000100000 E
b11111111111111111111111111111000 &
b11111111111111111111111111111000 :
b11111111111111111111111111111000 B
#415000
b1000110101011110011010 N
b1000110101011110011010 o
#416000
b1010 9
#420000
0(
#430000
b11111111111111100000001000000010 s
b11111111111111111111111111111000 k
b11111111111111111111111111111000 ;"
b101100 H
b101100 !
b101100 "
b101100 ?
b101100 e
b101000 G
b101000 d
b11111111111111110000000100000001 [
b11111111111111110000000100000001 m
b11111111111111100000001000000010 r
b0 q
b11111111111111110000000100000001 \
b11111111111111110000000100000001 n
b11111111111111110000000100000001 a
b10000100011000000100000 _
b100100 F
b100100 `
b110 b
b100011010101111001101 %
b100011010101111001101 ;
b100011010101111001101 C
b100011010101111001101 W
b101 X
b1000010010100000100000 U
b100000 I
b100000 V
b1000110101011110011010 '
b1000110101011110011010 <
b1000110101011110011010 A
b1000110101011110011010 R
b10001100000001000000000000010100 h
b11100 J
b11100 i
b100 j
b100 :"
1l
b10100 g
b100000 =
b1000100011100000100000 @
1(
#434000
b100000 k
b100000 ;"
b100011010101111001101 L
b100011010101111001101 v
b1 t
b100000 &
b100000 :
b100000 B
b1000100011100000100000 D
b1000100011100000100000 #
b1000100011100000100000 >
b1000100011100000100000 E
#435000
1O
b11111111111111100000001000000010 N
b11111111111111100000001000000010 o
#436000
b1011 9
#440000
0(
#450000
b1000110101011110011010 k
b1000110101011110011010 ;"
b100001010110011001110 s
b1000110101011110011010 g
b101 j
b101 :"
b100000 J
b100000 i
b1000010010100000100000 h
1Q
b11111111111111100000001000000010 '
b11111111111111100000001000000010 <
b11111111111111100000001000000010 A
b11111111111111100000001000000010 R
b100100 I
b100100 V
b10000100011000000100000 U
b110 X
b11111111111111110000000100000001 %
b11111111111111110000000100000001 ;
b11111111111111110000000100000001 C
b11111111111111110000000100000001 W
b111 b
b101000 F
b101000 `
b1000100011100000100000 _
b100001010110011001110 r
b100101010101011001100 q
b100011010101111001101 [
b100011010101111001101 m
b101100 G
b101100 d
b110000 H
b110000 !
b110000 "
b110000 ?
b110000 e
b100000 4"
b10000010100000000100000 @
bx =
1(
#454000
b11111111111111110000000100000001 L
b11111111111111110000000100000001 v
b10 t
b100011010101111001101 K
b100011010101111001101 w
b1 u
b10000010100000000100000 D
b10000010100000000100000 #
b10000010100000000100000 >
b10000010100000000100000 E
bx &
bx :
bx B
#455000
0O
b100001010110011001110 N
b100001010110011001110 o
#456000
b1100 9
#460000
0(
#470000
b11111111111111100000001000000010 k
b11111111111111100000001000000010 ;"
b1000110101011110011010 5"
b110100 H
b110100 !
b110100 "
b110100 ?
b110100 e
b110000 G
b110000 d
b11111111111111110000000100000001 [
b11111111111111110000000100000001 m
b100001010110011001110 r
b11111111111011010101010100110100 q
b100011010101111001101 \
b100011010101111001101 n
b100011010101111001101 a
b10000010100000000100000 _
b101100 F
b101100 `
b1000 b
b111 X
b1000100011100000100000 U
b101000 I
b101000 V
b100001010110011001110 '
b100001010110011001110 <
b100001010110011001110 A
b100001010110011001110 R
0Q
b10000100011000000100000 h
b100100 J
b100100 i
b110 j
b110 :"
b11111111111111100000001000000010 g
1f
b10101100100000111111111111111000 @
1(
#474000
b100000 L
b100000 v
b100 t
b100 K
b100 w
b11 u
b10101100100000111111111111111000 D
b10101100100000111111111111111000 #
b10101100100000111111111111111000 >
b10101100100000111111111111111000 E
#476000
b1101 9
#480000
0(
#490000
b100001010110011001110 k
b100001010110011001110 ;"
b11000 s
0f
b100001010110011001110 g
b111 j
b111 :"
b101000 J
b101000 i
b1000100011100000100000 h
b101100 I
b101100 V
b10000010100000000100000 U
b1000 X
b100011010101111001101 %
b100011010101111001101 ;
b100011010101111001101 C
b100011010101111001101 W
0c
1^
b11 b
b110000 F
b110000 `
b10101100100000111111111111111000 _
b100 a
b11111111111111111111111111111000 \
b11111111111111111111111111111000 n
b11000 r
b101000 q
b100000 [
b100000 m
b110100 G
b110100 d
b111000 H
b111000 !
b111000 "
b111000 ?
b111000 e
b11111111111111100000001000000010 6"
b10101100000001010000000000011100 @
1(
#494000
b0 L
b0 v
b0 t
b1000110101011110011010 K
b1000110101011110011010 w
b101 u
b10101100000001010000000000011100 D
b10101100000001010000000000011100 #
b10101100000001010000000000011100 >
b10101100000001010000000000011100 E
#495000
b11000 N
b11000 o
#496000
b1110 9
#500000
0(
#510000
b11100 s
b100001010110011001110 7"
b111100 H
b111100 !
b111100 "
b111100 ?
b111100 e
b111000 G
b111000 d
b0 [
b0 m
b11100 r
b11111111111111111111111111100100 q
b11100 \
b11100 n
b1000110101011110011010 a
b10101100000001010000000000011100 _
b110100 F
b110100 `
b101 b
b100 %
b100 ;
b100 C
b100 W
b11 X
b10101100100000111111111111111000 U
b110000 I
b110000 V
0Y
1$
1T
b11000 '
b11000 <
b11000 A
b11000 R
b10000010100000000100000 h
b101100 J
b101100 i
b1000 j
b1000 :"
b10101100000001100000000000100000 @
1(
#514000
b11111111111111100000001000000010 K
b11111111111111100000001000000010 w
b110 u
b10101100000001100000000000100000 D
b10101100000001100000000000100000 #
b10101100000001100000000000100000 >
b10101100000001100000000000100000 E
#515000
b11100 N
b11100 o
#516000
b1111 9
#520000
0(
#530000
b100000 s
b11000 g
0l
b11 j
b11 :"
b110000 J
b110000 i
b10101100100000111111111111111000 h
b11100 '
b11100 <
b11100 A
b11100 R
b110100 I
b110100 V
b10101100000001010000000000011100 U
b101 X
b1000110101011110011010 %
b1000110101011110011010 ;
b1000110101011110011010 C
b1000110101011110011010 W
b110 b
b111000 F
b111000 `
b10101100000001100000000000100000 _
b11111111111111100000001000000010 a
b100000 r
b11111111111111111111111111100000 q
b100000 \
b100000 n
b111100 G
b111100 d
b1000000 H
b1000000 !
b1000000 "
b1000000 ?
b1000000 e
b100001010110011001110 8"
b10101100000001110000000000100100 @
b0 =
1(
#534000
b100001010110011001110 K
b100001010110011001110 w
b111 u
b10101100000001110000000000100100 D
b10101100000001110000000000100100 #
b10101100000001110000000000100100 >
b10101100000001110000000000100100 E
b0 &
b0 :
b0 B
#535000
b100000 N
b100000 o
#536000
b10000 9
#540000
0(
#550000
b100100 s
b1000100 H
b1000100 !
b1000100 "
b1000100 ?
b1000100 e
b1000000 G
b1000000 d
b100100 r
b11111111111111111111111111011100 q
b100100 \
b100100 n
b100001010110011001110 a
b10101100000001110000000000100100 _
b111100 F
b111100 `
b111 b
b11111111111111100000001000000010 %
b11111111111111100000001000000010 ;
b11111111111111100000001000000010 C
b11111111111111100000001000000010 W
b110 X
b10101100000001100000000000100000 U
b111000 I
b111000 V
b100000 '
b100000 <
b100000 A
b100000 R
b10101100000001010000000000011100 h
b110100 J
b110100 i
b101 j
b101 :"
b11100 g
b10101100000010000000000000101000 @
1(
#554000
b1000 u
b10101100000010000000000000101000 D
b10101100000010000000000000101000 #
b10101100000010000000000000101000 >
b10101100000010000000000000101000 E
#555000
b100100 N
b100100 o
#556000
b10001 9
#560000
0(
#570000
b101000 s
b100000 g
b110 j
b110 :"
b111000 J
b111000 i
b10101100000001100000000000100000 h
b100100 '
b100100 <
b100100 A
b100100 R
b111100 I
b111100 V
b10101100000001110000000000100100 U
b111 X
b100001010110011001110 %
b100001010110011001110 ;
b100001010110011001110 C
b100001010110011001110 W
b1000 b
b1000000 F
b1000000 `
b10101100000010000000000000101000 _
b101000 r
b11111111111111111111111111011000 q
b101000 \
b101000 n
b1000100 G
b1000100 d
b1001000 H
b1001000 !
b1001000 "
b1001000 ?
b1001000 e
b1000010010100000100010 @
1(
#574000
b100011010101111001101 L
b100011010101111001101 v
b1 t
b100011010101111001101 K
b100011010101111001101 w
b1 u
b1000010010100000100010 D
b1000010010100000100010 #
b1000010010100000100010 >
b1000010010100000100010 E
#575000
b101000 N
b101000 o
#576000
b10010 9
#580000
0(
#590000
b0 s
b1001100 H
b1001100 !
b1001100 "
b1001100 ?
b1001100 e
b1001000 G
b1001000 d
b100011010101111001101 [
b100011010101111001101 m
b1000110101011110011010 r
b0 q
b100011010101111001101 \
b100011010101111001101 n
b100011010101111001101 a
b1000010010100000100010 _
b1000100 F
b1000100 `
b101 b
b1 ]
b1 p
0^
1c
b1000 X
b10101100000010000000000000101000 U
b1000000 I
b1000000 V
b101000 '
b101000 <
b101000 A
b101000 R
b10101100000001110000000000100100 h
b111100 J
b111100 i
b111 j
b111 :"
b100100 g
b10000100011000000100010 @
1(
#594000
b11111111111111110000000100000001 L
b11111111111111110000000100000001 v
b10 t
b11111111111111110000000100000001 K
b11111111111111110000000100000001 w
b10 u
b10000100011000000100010 D
b10000100011000000100010 #
b10000100011000000100010 >
b10000100011000000100010 E
#595000
1M
b0 N
b0 o
#596000
b10011 9
#600000
0(
#610000
b101000 g
b1000 j
b1000 :"
b1000000 J
b1000000 i
b10101100000010000000000000101000 h
1S
b0 '
b0 <
b0 A
b0 R
0$
0T
1Y
b1000100 I
b1000100 V
b1000010010100000100010 U
b101 X
b100011010101111001101 %
b100011010101111001101 ;
b100011010101111001101 C
b100011010101111001101 W
b110 b
b1001000 F
b1001000 `
b10000100011000000100010 _
b11111111111111110000000100000001 a
b11111111111111110000000100000001 \
b11111111111111110000000100000001 n
b11111111111111100000001000000010 r
b0 q
b11111111111111110000000100000001 [
b11111111111111110000000100000001 m
b1001100 G
b1001100 d
b1010000 H
b1010000 !
b1010000 "
b1010000 ?
b1010000 e
b1000100011100000100010 @
1(
#614000
b100011010101111001101 L
b100011010101111001101 v
b1 t
b1000100011100000100010 D
b1000100011100000100010 #
b1000100011100000100010 >
b1000100011100000100010 E
#616000
b10100 9
#620000
0(
#630000
b100101010101011001100 s
b0 k
b0 ;"
b1010100 H
b1010100 !
b1010100 "
b1010100 ?
b1010100 e
b1010000 G
b1010000 d
b100001010110011001110 r
b100101010101011001100 q
b100011010101111001101 [
b100011010101111001101 m
b1000100011100000100010 _
b1001100 F
b1001100 `
b111 b
b11111111111111110000000100000001 %
b11111111111111110000000100000001 ;
b11111111111111110000000100000001 C
b11111111111111110000000100000001 W
b110 X
b10000100011000000100010 U
b1001000 I
b1001000 V
b1000010010100000100010 h
b1000100 J
b1000100 i
b101 j
b101 :"
1l
b0 g
b100011010101111001101 =
b10000010100000000100010 @
1(
#634000
b11111111111111110000000100000001 L
b11111111111111110000000100000001 v
b10 t
b100011010101111001101 K
b100011010101111001101 w
b1 u
b100011010101111001101 &
b100011010101111001101 :
b100011010101111001101 B
b10000010100000000100010 D
b10000010100000000100010 #
b10000010100000000100010 >
b10000010100000000100010 E
#635000
0M
b100101010101011001100 N
b100101010101011001100 o
#636000
b10101 9
#640000
0(
#650000
b11111111111011010101010100110100 s
b110 j
b110 :"
b1001000 J
b1001000 i
b10000100011000000100010 h
0S
b100101010101011001100 '
b100101010101011001100 <
b100101010101011001100 A
b100101010101011001100 R
b1001100 I
b1001100 V
b1000100011100000100010 U
b111 X
b1000 b
b1010000 F
b1010000 `
b10000010100000000100010 _
b100011010101111001101 a
b100011010101111001101 \
b100011010101111001101 n
b100001010110011001110 r
b11111111111011010101010100110100 q
b11111111111111110000000100000001 [
b11111111111111110000000100000001 m
b1010100 G
b1010100 d
b1011000 H
b1011000 !
b1011000 "
b1011000 ?
b1011000 e
b0 5"
b10101100000001010000000000111100 @
1(
#654000
b0 L
b0 v
b0 t
b0 K
b0 w
b101 u
b10101100000001010000000000111100 D
b10101100000001010000000000111100 #
b10101100000001010000000000111100 >
b10101100000001010000000000111100 E
#655000
1O
b11111111111011010101010100110100 N
b11111111111011010101010100110100 o
#656000
b10110 9
#660000
0(
#670000
b111100 s
b100101010101011001100 k
b100101010101011001100 ;"
b0 6"
b1011100 H
b1011100 !
b1011100 "
b1011100 ?
b1011100 e
b1011000 G
b1011000 d
b0 [
b0 m
b111100 r
b11111111111111111111111111000100 q
b111100 \
b111100 n
b0 a
b10101100000001010000000000111100 _
b1010100 F
b1010100 `
b101 b
b0 ]
b0 p
1^
0c
b100011010101111001101 %
b100011010101111001101 ;
b100011010101111001101 C
b100011010101111001101 W
b1000 X
b10000010100000000100010 U
b1010000 I
b1010000 V
b11111111111011010101010100110100 '
b11111111111011010101010100110100 <
b11111111111011010101010100110100 A
b11111111111011010101010100110100 R
1Q
b1000100011100000100010 h
b1001100 J
b1001100 i
b111 j
b111 :"
b100101010101011001100 g
bx =
b10101100000001100000000001000000 @
1(
#674000
b110 u
bx &
bx :
bx B
b10101100000001100000000001000000 D
b10101100000001100000000001000000 #
b10101100000001100000000001000000 >
b10101100000001100000000001000000 E
#675000
0O
b111100 N
b111100 o
#676000
b10111 9
#680000
0(
#690000
b11111111111011010101010100110100 k
b11111111111011010101010100110100 ;"
b1000000 s
1f
b11111111111011010101010100110100 g
b1000 j
b1000 :"
b1010000 J
b1010000 i
b10000010100000000100010 h
0Q
b111100 '
b111100 <
b111100 A
b111100 R
1$
1T
0Y
b1010100 I
b1010100 V
b10101100000001010000000000111100 U
b101 X
b0 %
b0 ;
b0 C
b0 W
b110 b
b1011000 F
b1011000 `
b10101100000001100000000001000000 _
b1000000 r
b11111111111111111111111111000000 q
b1000000 \
b1000000 n
b1011100 G
b1011100 d
b1100000 H
b1100000 !
b1100000 "
b1100000 ?
b1100000 e
b100101010101011001100 7"
b10101100000001110000000001000100 @
1(
#694000
b100101010101011001100 K
b100101010101011001100 w
b111 u
b10101100000001110000000001000100 D
b10101100000001110000000001000100 #
b10101100000001110000000001000100 >
b10101100000001110000000001000100 E
#695000
b1000000 N
b1000000 o
#696000
b11000 9
#700000
0(
#710000
b1000100 s
b11111111111011010101010100110100 8"
b1100100 H
b1100100 !
b1100100 "
b1100100 ?
b1100100 e
b1100000 G
b1100000 d
b1000100 r
b11111111111111111111111110111100 q
b1000100 \
b1000100 n
b100101010101011001100 a
b10101100000001110000000001000100 _
b1011100 F
b1011100 `
b111 b
b110 X
b10101100000001100000000001000000 U
b1011000 I
b1011000 V
b1000000 '
b1000000 <
b1000000 A
b1000000 R
b10101100000001010000000000111100 h
b1010100 J
b1010100 i
b101 j
b101 :"
0l
b111100 g
0f
b1010100 =
b10101100000010000000000001001000 @
1(
#714000
b11111111111011010101010100110100 K
b11111111111011010101010100110100 w
b1000 u
b1010100 &
b1010100 :
b1010100 B
b10101100000010000000000001001000 D
b10101100000010000000000001001000 #
b10101100000010000000000001001000 >
b10101100000010000000000001001000 E
#715000
b1000100 N
b1000100 o
#716000
b11001 9
#720000
0(
#730000
b1001000 s
b1000000 g
b110 j
b110 :"
b1011000 J
b1011000 i
b10101100000001100000000001000000 h
b1000100 '
b1000100 <
b1000100 A
b1000100 R
b1011100 I
b1011100 V
b10101100000001110000000001000100 U
b111 X
b100101010101011001100 %
b100101010101011001100 ;
b100101010101011001100 C
b100101010101011001100 W
b1000 b
b1100000 F
b1100000 `
b10101100000010000000000001001000 _
b11111111111011010101010100110100 a
b1001000 r
b11111111111111111111111110111000 q
b1001000 \
b1001000 n
b1100100 G
b1100100 d
b1101000 H
b1101000 !
b1101000 "
b1101000 ?
b1101000 e
b1000100010100000101010 @
b11111111111111111111111111111111 =
1(
#734000
b100011010101111001101 L
b100011010101111001101 v
b1 t
b11111111111111110000000100000001 K
b11111111111111110000000100000001 w
b10 u
b1000100010100000101010 D
b1000100010100000101010 #
b1000100010100000101010 >
b1000100010100000101010 E
b11111111111111111111111111111111 &
b11111111111111111111111111111111 :
b11111111111111111111111111111111 B
#735000
b1001000 N
b1001000 o
#736000
b11010 9
